#VRML V2.0 utf8
 #VRML V2.0 utf8

DEF	cuaso2 Transform {
		children [
			Transform {
			
			children [
				Shape {
					geometry Box {
					
					size  0.03 0.75 0.03}
					appearance Appearance {
						material  Material {
						diffuseColor 0.6 0.5 0.3
						}
					}

				}
			]
			}
			Transform {
				  translation 0.25 0 0
			children [
				Shape {
					geometry Box {
					
					size  0.03 0.75 0.03}
					appearance Appearance {
						material  Material {
						diffuseColor 0.6 0.5 0.3
						}
					}

				}
			]
			}

			Transform {
				  translation 0.125 0.375 0
			children [
				Shape {
					geometry Box {
					
					size  0.28 0.03 0.03}
					appearance Appearance {
						material  Material {
						diffuseColor 0.6 0.5 0.3
						}
					}

				}
			]
			}
			   Transform {
				  translation 0.125 0.125 0
			children [
				Shape {
					geometry Box {
					
					size  0.28 0.03 0.03}
					appearance Appearance {
						material  Material {
						diffuseColor 0.6 0.5 0.3
						}
					}

				}
			]
			}
			Transform {
				  translation 0.125 -0.125 0
			children [
				Shape {
					geometry Box {
					
					size  0.26 0.03 0.03}
					appearance Appearance {
						material  Material {
						diffuseColor 0.6 0.5 0.3
						}
					}

				}
			]
			}
			Transform {
				  translation 0.125 -0.375 0
			children [
				Shape {
					geometry Box {
					
					size  0.28 0.03 0.03}
					appearance Appearance {
						material  Material {
						diffuseColor 0.6 0.5 0.3
						}
					}

				}
			]
			}
				DEF kinh Transform {
				translation	0.125 0.245 0
				children [
				Shape {
					geometry Box{size 0.22 0.22 0.03}
					appearance Appearance {
						material Material {
						diffuseColor  0.8 0.8 0.9
						transparency 0.2
						}
					}
					}
				]
			}
			Transform {
			translation	 0 -0.25 0
			children [
			USE	kinh
			]
			}
			Transform {
			translation	 0 -0.5 0
			children [
			USE	kinh
			]
			}
	    	  
		]

		}
  
	
