#VRML V2.0 utf8

DEF	cuaso1 Transform {
		children [
			Transform {
			translation	 0.225 0.25 0 
			children [
				Shape {
					geometry Box {
					
					size  0.03 0.45 0.03}
					appearance Appearance {
						material  Material {
						diffuseColor 0.6 0.5 0.3
						}
					}

				}
			]
			}
			Transform {
			translation	  0.03 0.25 0
			children [
				Shape {
					geometry Box {
					
					size  0.03 0.45 0.03}
					appearance Appearance {
						material  Material {
						diffuseColor 0.6 0.5 0.3
						}
					}

				}
			]
			}
			Transform {
			translation	  0.1275 0.03 0
			children [
				Shape {
					geometry Box {
					
					size  0.225 0.03 0.03}
					appearance Appearance {
						material  Material {
						diffuseColor 0.6 0.5 0.3
						}
					}

				}
			]
			}
			Transform {
			translation	  0.1275 0.465 0
			children [
				Shape {
					geometry Box {
					
					size  0.225 0.03 0.03}
					appearance Appearance {
						material  Material {
						diffuseColor 0.6 0.5 0.3
						}
					}

				}
			]
			}
			Transform {
			translation	  0.125 0.25 0
			children [
				Shape {
					geometry Box {
					
					size  0.22 0.03 0.03}
					appearance Appearance {
						material  Material {
						diffuseColor 0.6 0.5 0.3
						}
					}

				}
			]
			}
				DEF kinh Transform {
				translation	0.13 0.355 0
				children [
				Shape {
					geometry Box{size 0.16 0.18 0.03}
					appearance Appearance {
						material Material {
						diffuseColor  0.8 0.8 0.9
						transparency 0.2
						}
					}
					}
				]
			}
			Transform {
			translation	 0 -0.225 0
			children [
			USE	kinh
			]
			}
	    	  DEF ts1	TouchSensor {}
			  DEF cs CylinderSensor {
			  minAngle -1.2
			  maxAngle 0
					}
		]

		}
  
ROUTE ts1.enabled TO cs.enabled
ROUTE cs.rotation_changed TO cuaso1.rotation
