#VRML V2.0 utf8

DEF	canhquat Transform {
translation	0 0 0
children [
	DEF	daucanhquat Transform {
	translation	0 0 0
	children [
		Shape {
			geometry Cylinder {radius 0.1 height 0.004}
			appearance Appearance {
				material Material {
				diffuseColor 0 1 0
				}
			}
		}
	]
}
DEF thancanhquat Transform {
	translation	0 0 -0.3
	children [
		Shape {
			geometry Box {size 0.2 0.004 0.6}
			appearance Appearance {
				material Material {
				diffuseColor 0 1 0
				}
			}
		}
	]
}

Transform {translation 0 0 -0.6 children [USE  daucanhquat ]}

DEF	chuoiquat Transform	{
	translation	0 0 -0.7
	children [
		Shape {
			geometry Box {size 0.04 0.004 0.02}
			appearance Appearance {
				material Material {
				diffuseColor 0 1 0
				}
			}
		}
]
}
]
}