#VRML V2.0 utf8

 DEF cuaravao  Transform {
	 center	0.76 0 0 
	children [
		Transform {
			children [
				Shape {
					geometry Box {
					size 0.2 2 0.03
				}
				appearance Appearance {
					material Material {
					diffuseColor 0.5 0.2 0.2
					}
				}
			
			}
			]
		}
		Transform {
			translation	0.75 0 0
			children [
				Shape {
					geometry Box {
					size 0.2 2 0.03
				}
				appearance Appearance {
					material Material {
					diffuseColor 0.5 0.2 0.2
					}
				}
			
			}
			]
		}
		Transform {
			translation	0.375 1 0
			children [
				Shape {
					geometry Box {
					size 0.95 0.2 0.03
				}
				appearance Appearance {
					material Material {
					diffuseColor 0.5 0.2 0.2
					}
				}
			
			}
			]
		}
	
		Transform {
			translation	0.375 -1 0
			children [
				Shape {
					geometry Box {
					size 0.95 0.2 0.03
				}
				appearance Appearance {
					material Material {
					diffuseColor 0.5 0.2 0.2
					}
				}
			
			}
			]
		}
		Transform {
			translation	0.375 -0.1 0
			children [
				Shape {
					geometry Box {
					size 0.95 0.1 0.03
				}
				appearance Appearance {
					material Material {
					diffuseColor 0.5 0.2 0.2
					}
				}
			
			}
			]
		}
		Transform {
			translation	0.375 -0.25 0
			children [
				Shape {
					geometry Box {
					size 0.95 0.1 0.03
				}
				appearance Appearance {
					material Material {
					diffuseColor 0.5 0.2 0.2
					}
				}
			
			}
			]
		}
		Transform {
			translation	0.375 -0.15 0
			children [
				Shape {
					geometry Box {
					size 0.95 -0.15 0.01
				}
				appearance Appearance {
					material Material {
					diffuseColor 0.5 0.2 0.2
					}
				}
			
			}
			]
		}
		Transform {
			translation	0.375 0.5 0
			children [
				Shape {
					geometry Box {
					size 0.15 1.2 0.03
				}
				appearance Appearance {
					material Material {
					diffuseColor 0.5 0.2 0.2
					}
				}
			
			}
			]
		}
		Transform {
			translation	0.185 0.5 0
			children [
				Shape {
					geometry Box {
					size 0.3 1.2 0.01
				}
				appearance Appearance {
					material Material {
					diffuseColor 0.5 0.3 0.2
					}
				}
			
			}
			]
		}
		Transform {
			translation	0.6 0.5 0
			children [
				Shape {
					geometry Box {
					size 0.3 1.2 0.01
				}
				appearance Appearance {
					material Material {
					diffuseColor 0.5 0.3 0.2
					}
				}
			
			}
			]
		}
		Transform {
			translation	0.375 -0.6 0
			children [
				Shape {
					geometry Box {
					size 0.75 0.6 0.01
				}
				appearance Appearance {
					material Material {
					diffuseColor 0.5 0.3 0.2
					}
				}
			
			}
			]
		}
	DEF	ts TouchSensor	{
		
		}
	DEF	cs CylinderSensor {
	maxAngle  1.57
	minAngle 0
}
	]
}
 ROUTE ts.enabled  TO cs.enabled
 ROUTE cs.rotation_changed TO cuaravao.rotation
