#VRML V2.0 utf8

# Produced by 3D Studio MAX VRML97 exporter, Version 19, Revision 1072
# MAX File: www.cadnav.com_2013-10-19_047.max, Date: Sun May 13 10:26:17 2018

DEF www.cadnav.com-2672 Transform {
  translation -11.02 34.15 -7.657
  children [
    DEF obj_01-2655 Transform {
      translation 11.81 -1.668 -0.4134
      rotation -0.5774 -0.5774 0.5774 -2.094
      children [
        Shape {
          appearance Appearance {
            material Material {
              diffuseColor 0.588 0.588 0.588
              ambientIntensity 1.0
              specularColor 0 0 0
              shininess 0.145
              transparency 0
            }
          }
          geometry DEF obj_01-2655-FACES IndexedFaceSet {
            ccw TRUE
            solid FALSE
            coord DEF obj_01-2655-COORD Coordinate { point [
              8.031 0 -32.44, -7.285 0.03937 32.48, -7.086 0 32.42, 
              -6.958 0 32.35, -6.872 0 32.25, -6.808 0 32.11, 
              -6.749 0 31.95, -6.674 0 31.77, -6.562 0 31.58, 
              -6.394 0 31.4, -6.15 0 31.23, -5.81 0 31.08, -5.354 0 30.97, 
              -4.764 0 30.89, -4.017 0 30.87, 4.044 0 30.87, 
              4.789 0 30.89, 5.378 0 30.97, 5.831 0 31.08, 6.169 0 31.23, 
              6.411 0 31.4, 6.577 0 31.58, 6.686 0 31.77, 6.758 0 31.95, 
              6.815 0 32.11, 6.877 0 32.25, 6.96 0 32.35, 7.086 0 32.42, 
              7.285 0 32.44, 8.071 0.03937 32.44, 8.031 0.7087 -32.48, 
              -8.071 0.7874 32.44, -7.285 0.748 32.48, -7.075 0.748 32.45, 
              -6.933 0.748 32.38, -6.839 0.748 32.27, -6.772 0.748 32.12, 
              -6.712 0.748 31.96, -6.638 0.748 31.78, -6.531 0.748 31.6, 
              -6.368 0.748 31.43, -6.13 0.748 31.26, -5.797 0.748 31.12, 
              -5.347 0.748 31.01, -4.761 0.748 30.93, -4.017 0.748 30.91, 
              4.043 0.748 30.91, 4.785 0.748 30.93, 5.37 0.748 31.01, 
              5.818 0.748 31.12, 6.149 0.748 31.26, 6.385 0.748 31.43, 
              6.545 0.748 31.6, 6.65 0.748 31.78, 6.721 0.748 31.96, 
              6.779 0.748 32.12, 6.843 0.748 32.27, 6.935 0.748 32.38, 
              7.074 0.748 32.45, 7.282 0.748 32.48, 8.071 0.748 32.44, 
              -8.11 -1.575 -32.44, -8.071 -1.535 28.53, -8.071 -1.535 29.54, 
              -8.071 -1.493 29.85, -8.071 -1.382 30.15, -8.071 -1.229 30.47, 
              -8.071 -1.061 30.83, -8.071 -0.9054 31.27, -8.071 -0.7919 31.81, 
              -8.071 -0.7505 32.44, -8.819 0.748 -32.48, -8.819 -1.575 -32.44, 
              -8.819 -1.575 28.53, -8.819 -1.575 29.54, -8.819 -1.531 29.86, 
              -8.819 -1.419 30.16, -8.819 -1.265 30.48, -8.819 -1.097 30.85, 
              -8.819 -0.9434 31.28, -8.819 -0.831 31.82, -8.819 -0.748 32.48, 
              -8.819 0.7874 32.44, -8.11 0.03937 32.48, -8.071 0 -32.44, 
              8.031 0.01153 -32.45, 8.071 0.03937 -32.44, -7.287 0 32.44, 
              -7.075 0.03937 32.45, -6.933 0.03937 32.38, -6.839 0.03937 32.27, 
              -6.772 0.03937 32.12, -6.712 0.03937 31.96, -6.638 0.03937 31.78, 
              -6.531 0.03937 31.6, -6.368 0.03937 31.43, -6.13 0.03937 31.26, 
              -5.797 0.03937 31.12, -5.347 0.03937 31.01, -4.761 0.03937 30.93, 
              -4.017 0.03937 30.91, 4.043 0.03937 30.91, 4.785 0.03937 30.93, 
              5.37 0.03937 31.01, 5.818 0.03937 31.12, 6.149 0.03937 31.26, 
              6.385 0.03937 31.43, 6.545 0.03937 31.6, 6.65 0.03937 31.78, 
              6.721 0.03937 31.96, 6.779 0.03937 32.12, 6.843 0.03937 32.27, 
              6.935 0.03937 32.38, 7.074 0.03937 32.45, 7.282 0.03937 32.48, 
              8.031 0.03937 32.48, 8.031 0 32.44, 8.031 0.7874 -32.44, 
              8.071 0.748 -32.44, -8.071 0.748 32.48, -7.287 0.7874 32.44, 
              -7.086 0.7874 32.42, -6.958 0.7874 32.35, -6.872 0.7874 32.25, 
              -6.808 0.7874 32.11, -6.749 0.7874 31.95, -6.674 0.7874 31.77, 
              -6.562 0.7874 31.58, -6.394 0.7874 31.4, -6.15 0.7874 31.23, 
              -5.81 0.7874 31.08, -5.354 0.7874 30.97, -4.764 0.7874 30.89, 
              -4.017 0.7874 30.87, 4.044 0.7874 30.87, 4.789 0.7874 30.89, 
              5.378 0.7874 30.97, 5.831 0.7874 31.08, 6.169 0.7874 31.23, 
              6.411 0.7874 31.4, 6.577 0.7874 31.58, 6.686 0.7874 31.77, 
              6.758 0.7874 31.95, 6.815 0.7874 32.11, 6.877 0.7874 32.25, 
              6.96 0.7874 32.35, 7.086 0.7874 32.42, 7.285 0.7874 32.44, 
              8.031 0.7874 32.44, 8.031 0.748 32.48, -8.11 -1.535 -32.48, 
              -8.071 -1.535 -32.44, -8.11 -1.575 28.53, -8.11 -1.575 29.54, 
              -8.11 -1.531 29.86, -8.11 -1.419 30.16, -8.11 -1.265 30.48, 
              -8.11 -1.097 30.85, -8.11 -0.9434 31.28, -8.11 -0.831 31.82, 
              -8.11 -0.748 32.48, -8.11 -0.79 32.44, -8.858 0.748 -32.44, 
              -8.819 0.7874 -32.44, -8.858 -1.535 -32.44, -8.819 -1.535 -32.48, 
              -8.858 -1.535 28.53, -8.858 -1.535 29.54, -8.858 -1.493 29.85, 
              -8.858 -1.382 30.15, -8.858 -1.229 30.47, -8.858 -1.061 30.83, 
              -8.858 -0.9054 31.27, -8.858 -0.7919 31.81, -8.858 -0.7505 32.44, 
              -8.819 -0.79 32.44, -8.858 0.748 32.44, -8.819 0.748 32.48, 
              -8.071 0 32.44, -8.11 0.03937 -32.48, -8.622 0.7874 -32.24, 
              -8.622 0.7874 32.24, -8.071 0.7874 32.24, -7.3 0.7874 32.24, 
              -7.146 0.7874 32.22, -7.084 0.7874 32.19, -7.039 0.7874 32.14, 
              -6.99 0.7874 32.03, -6.932 0.7874 31.87, -6.85 0.7874 31.68, 
              -6.721 0.7874 31.46, -6.524 0.7874 31.25, -6.245 0.7874 31.05, 
              -5.873 0.7874 30.89, -5.391 0.7874 30.77, -4.78 0.7874 30.7, 
              -4.021 0.7874 30.67, 4.047 0.7874 30.67, 4.804 0.7874 30.7, 
              5.414 0.7874 30.77, 5.894 0.7874 30.89, 6.265 0.7874 31.05, 
              6.542 0.7874 31.25, 6.737 0.7874 31.46, 6.863 0.7874 31.68, 
              6.943 0.7874 31.88, 6.998 0.7874 32.04, 7.046 0.7874 32.14, 
              7.088 0.7874 32.19, 7.147 0.7874 32.22, 7.297 0.7874 32.24, 
              7.835 0.7874 32.24, 7.835 0.7874 -32.24, -8.858 0.5512 -32.24, 
              -8.858 -1.339 -32.24, -8.858 -1.339 28.53, -8.858 -1.339 29.52, 
              -8.858 -1.301 29.8, -8.858 -1.201 30.07, -8.858 -1.051 30.38, 
              -8.858 -0.8781 30.76, -8.858 -0.7155 31.22, -8.858 -0.5964 31.78, 
              -8.858 -0.5662 32.24, -8.858 0.5512 32.24, -8.583 0.8268 -32.2, 
              -8.583 0.8268 32.2, -8.071 0.8268 32.2, -7.302 0.8268 32.2, 
              -7.158 0.8268 32.19, -7.109 0.8268 32.16, -7.073 0.8268 32.12, 
              -7.027 0.8268 32.02, -6.969 0.8268 31.86, -6.885 0.8268 31.66, 
              -6.753 0.8268 31.44, -6.55 0.8268 31.22, -6.264 0.8268 31.02, 
              -5.885 0.8268 30.86, -5.398 0.8268 30.73, -4.783 0.8268 30.66, 
              -4.021 0.8268 30.63, 4.048 0.8268 30.63, 4.808 0.8268 30.66, 
              5.421 0.8268 30.73, 5.907 0.8268 30.86, 6.284 0.8268 31.02, 
              6.568 0.8268 31.22, 6.769 0.8268 31.44, 6.899 0.8268 31.66, 
              6.98 0.8268 31.86, 7.035 0.8268 32.02, 7.08 0.8268 32.12, 
              7.113 0.8268 32.16, 7.159 0.8268 32.19, 7.3 0.8268 32.2, 
              7.795 0.8268 32.2, 7.795 0.8268 -32.2, -8.898 0.5118 -32.2, 
              -8.898 -1.299 -32.2, -8.898 -1.299 28.53, -8.898 -1.299 29.52, 
              -8.898 -1.262 29.79, -8.898 -1.165 30.05, -8.898 -1.015 30.37, 
              -8.898 -0.8416 30.74, -8.898 -0.6775 31.21, -8.898 -0.5573 31.78, 
              -8.898 -0.5293 32.2, -8.898 0.5118 32.2, 8.031 -23.62 -32.44, 
              -7.285 -23.66 32.48, -7.086 -23.62 32.42, -6.958 -23.62 32.35, 
              -6.872 -23.62 32.25, -6.808 -23.62 32.11, -6.749 -23.62 31.95, 
              -6.674 -23.62 31.77, -6.562 -23.62 31.58, -6.394 -23.62 31.4, 
              -6.15 -23.62 31.23, -5.81 -23.62 31.08, -5.354 -23.62 30.97, 
              -4.764 -23.62 30.89, -4.017 -23.62 30.87, 4.044 -23.62 30.87, 
              4.789 -23.62 30.89, 5.378 -23.62 30.97, 5.831 -23.62 31.08, 
              6.169 -23.62 31.23, 6.411 -23.62 31.4, 6.577 -23.62 31.58, 
              6.686 -23.62 31.77, 6.758 -23.62 31.95, 6.815 -23.62 32.11, 
              6.877 -23.62 32.25, 6.96 -23.62 32.35, 7.086 -23.62 32.42, 
              7.285 -23.62 32.44, 8.071 -23.66 32.44, 8.031 -24.33 -32.48, 
              -8.071 -24.41 32.44, -7.285 -24.37 32.48, -7.075 -24.37 32.45, 
              -6.933 -24.37 32.38, -6.839 -24.37 32.27, -6.772 -24.37 32.12, 
              -6.712 -24.37 31.96, -6.638 -24.37 31.78, -6.531 -24.37 31.6, 
              -6.368 -24.37 31.43, -6.13 -24.37 31.26, -5.797 -24.37 31.12, 
              -5.347 -24.37 31.01, -4.761 -24.37 30.93, -4.017 -24.37 30.91, 
              4.043 -24.37 30.91, 4.785 -24.37 30.93, 5.37 -24.37 31.01, 
              5.818 -24.37 31.12, 6.149 -24.37 31.26, 6.385 -24.37 31.43, 
              6.545 -24.37 31.6, 6.65 -24.37 31.78, 6.721 -24.37 31.96, 
              6.779 -24.37 32.12, 6.843 -24.37 32.27, 6.935 -24.37 32.38, 
              7.074 -24.37 32.45, 7.282 -24.37 32.48, 8.071 -24.37 32.44, 
              -8.11 -22.05 -32.44, -8.071 -22.09 28.53, -8.071 -22.09 29.54, 
              -8.071 -22.13 29.85, -8.071 -22.24 30.15, -8.071 -22.39 30.47, 
              -8.071 -22.56 30.83, -8.071 -22.72 31.27, -8.071 -22.83 31.81, 
              -8.071 -22.87 32.44, -8.819 -24.37 -32.48, -8.819 -22.05 -32.44, 
              -8.819 -22.05 28.53, -8.819 -22.05 29.54, -8.819 -22.09 29.86, 
              -8.819 -22.2 30.16, -8.819 -22.36 30.48, -8.819 -22.52 30.85, 
              -8.819 -22.68 31.28, -8.819 -22.79 31.82, -8.819 -22.87 32.48, 
              -8.819 -24.41 32.44, -8.11 -23.66 32.48, -8.071 -23.62 -32.44, 
              8.031 -23.63 -32.45, 8.071 -23.66 -32.44, -7.287 -23.62 32.44, 
              -7.075 -23.66 32.45, -6.933 -23.66 32.38, -6.839 -23.66 32.27, 
              -6.772 -23.66 32.12, -6.712 -23.66 31.96, -6.638 -23.66 31.78, 
              -6.531 -23.66 31.6, -6.368 -23.66 31.43, -6.13 -23.66 31.26, 
              -5.797 -23.66 31.12, -5.347 -23.66 31.01, -4.761 -23.66 30.93, 
              -4.017 -23.66 30.91, 4.043 -23.66 30.91, 4.785 -23.66 30.93, 
              5.37 -23.66 31.01, 5.818 -23.66 31.12, 6.149 -23.66 31.26, 
              6.385 -23.66 31.43, 6.545 -23.66 31.6, 6.65 -23.66 31.78, 
              6.721 -23.66 31.96, 6.779 -23.66 32.12, 6.843 -23.66 32.27, 
              6.935 -23.66 32.38, 7.074 -23.66 32.45, 7.282 -23.66 32.48, 
              8.031 -23.66 32.48, 8.031 -23.62 32.44, 8.031 -24.41 -32.44, 
              8.071 -24.37 -32.44, -8.071 -24.37 32.48, -7.287 -24.41 32.44, 
              -7.086 -24.41 32.42, -6.958 -24.41 32.35, -6.872 -24.41 32.25, 
              -6.808 -24.41 32.11, -6.749 -24.41 31.95, -6.674 -24.41 31.77, 
              -6.562 -24.41 31.58, -6.394 -24.41 31.4, -6.15 -24.41 31.23, 
              -5.81 -24.41 31.08, -5.354 -24.41 30.97, -4.764 -24.41 30.89, 
              -4.017 -24.41 30.87, 4.044 -24.41 30.87, 4.789 -24.41 30.89, 
              5.378 -24.41 30.97, 5.831 -24.41 31.08, 6.169 -24.41 31.23, 
              6.411 -24.41 31.4, 6.577 -24.41 31.58, 6.686 -24.41 31.77, 
              6.758 -24.41 31.95, 6.815 -24.41 32.11, 6.877 -24.41 32.25, 
              6.96 -24.41 32.35, 7.086 -24.41 32.42, 7.285 -24.41 32.44, 
              8.031 -24.41 32.44, 8.031 -24.37 32.48, -8.11 -22.09 -32.48, 
              -8.071 -22.09 -32.44, -8.11 -22.05 28.53, -8.11 -22.05 29.54, 
              -8.11 -22.09 29.86, -8.11 -22.2 30.16, -8.11 -22.36 30.48, 
              -8.11 -22.52 30.85, -8.11 -22.68 31.28, -8.11 -22.79 31.82, 
              -8.11 -22.87 32.48, -8.11 -22.83 32.44, -8.858 -24.37 -32.44, 
              -8.819 -24.41 -32.44, -8.858 -22.09 -32.44, -8.819 -22.09 -32.48, 
              -8.858 -22.09 28.53, -8.858 -22.09 29.54, -8.858 -22.13 29.85, 
              -8.858 -22.24 30.15, -8.858 -22.39 30.47, -8.858 -22.56 30.83, 
              -8.858 -22.72 31.27, -8.858 -22.83 31.81, -8.858 -22.87 32.44, 
              -8.819 -22.83 32.44, -8.858 -24.37 32.44, -8.819 -24.37 32.48, 
              -8.071 -23.62 32.44, -8.11 -23.66 -32.48, -8.622 -24.41 -32.24, 
              -8.622 -24.41 32.24, -8.071 -24.41 32.24, -7.3 -24.41 32.24, 
              -7.146 -24.41 32.22, -7.084 -24.41 32.19, -7.039 -24.41 32.14, 
              -6.99 -24.41 32.03, -6.932 -24.41 31.87, -6.85 -24.41 31.68, 
              -6.721 -24.41 31.46, -6.524 -24.41 31.25, -6.245 -24.41 31.05, 
              -5.873 -24.41 30.89, -5.391 -24.41 30.77, -4.78 -24.41 30.7, 
              -4.021 -24.41 30.67, 4.047 -24.41 30.67, 4.804 -24.41 30.7, 
              5.414 -24.41 30.77, 5.894 -24.41 30.89, 6.265 -24.41 31.05, 
              6.542 -24.41 31.25, 6.737 -24.41 31.46, 6.863 -24.41 31.68, 
              6.943 -24.41 31.88, 6.998 -24.41 32.04, 7.046 -24.41 32.14, 
              7.088 -24.41 32.19, 7.147 -24.41 32.22, 7.297 -24.41 32.24, 
              7.835 -24.41 32.24, 7.835 -24.41 -32.24, -8.858 -24.17 -32.24, 
              -8.858 -22.28 -32.24, -8.858 -22.28 28.53, -8.858 -22.28 29.52, 
              -8.858 -22.32 29.8, -8.858 -22.42 30.07, -8.858 -22.57 30.38, 
              -8.858 -22.74 30.76, -8.858 -22.91 31.22, -8.858 -23.03 31.78, 
              -8.858 -23.06 32.24, -8.858 -24.17 32.24, -8.583 -24.45 -32.2, 
              -8.583 -24.45 32.2, -8.071 -24.45 32.2, -7.302 -24.45 32.2, 
              -7.158 -24.45 32.19, -7.109 -24.45 32.16, -7.073 -24.45 32.12, 
              -7.027 -24.45 32.02, -6.969 -24.45 31.86, -6.885 -24.45 31.66, 
              -6.753 -24.45 31.44, -6.55 -24.45 31.22, -6.264 -24.45 31.02, 
              -5.885 -24.45 30.86, -5.398 -24.45 30.73, -4.783 -24.45 30.66, 
              -4.021 -24.45 30.63, 4.048 -24.45 30.63, 4.808 -24.45 30.66, 
              5.421 -24.45 30.73, 5.907 -24.45 30.86, 6.284 -24.45 31.02, 
              6.568 -24.45 31.22, 6.769 -24.45 31.44, 6.899 -24.45 31.66, 
              6.98 -24.45 31.86, 7.035 -24.45 32.02, 7.08 -24.45 32.12, 
              7.113 -24.45 32.16, 7.159 -24.45 32.19, 7.3 -24.45 32.2, 
              7.795 -24.45 32.2, 7.795 -24.45 -32.2, -8.898 -24.13 -32.2, 
              -8.898 -22.32 -32.2, -8.898 -22.32 28.53, -8.898 -22.32 29.52, 
              -8.898 -22.36 29.79, -8.898 -22.46 30.05, -8.898 -22.61 30.37, 
              -8.898 -22.78 30.74, -8.898 -22.94 31.21, -8.898 -23.06 31.78, 
              -8.898 -23.09 32.2, -8.898 -24.13 32.2, -7.992 0.03937 -32.48, 
              -7.992 0.748 -32.48, -7.992 -23.66 -32.48, -7.992 -24.37 -32.48, 
              7.992 0.03937 -33.03, -8.031 0.07874 -33.03, -7.992 0.748 -33.03, 
              8.031 0.7087 -33.03, 7.992 -24.37 -33.03, -8.031 -24.33 -33.03, 
              -7.992 -23.66 -33.03, 8.031 -23.7 -33.03, 7.992 0.748 -32.48, 
              8.031 0.7759 -32.45, 8.059 0.748 -32.45, 7.992 0.03937 -32.48, 
              8.031 0.07874 -32.48, 8.059 0.03937 -32.45, 8.059 -24.37 -32.45, 
              8.031 -24.4 -32.45, 7.992 -24.37 -32.48, 8.059 -23.66 -32.45, 
              8.031 -23.7 -32.48, 7.992 -23.66 -32.48, -8.071 0.03937 -32.48, 
              -8.031 0.07874 -32.48, -8.031 0.7087 -32.48, -8.071 0.748 -32.48, 
              -8.031 -23.7 -32.48, -8.071 -23.66 -32.48, -8.071 -24.37 -32.48, 
              -8.031 -24.33 -32.48, 7.992 0.07874 -33.07, 8.031 0.07874 -33.03, 
              -7.992 0.07874 -33.07, -7.992 0.03937 -33.03, -7.992 0.7087 -33.07, 
              -8.031 0.7087 -33.03, 7.992 0.7087 -33.07, 7.992 0.748 -33.03, 
              7.992 -24.33 -33.07, 8.031 -24.33 -33.03, -7.992 -24.33 -33.07, 
              -7.992 -24.37 -33.03, -7.992 -23.7 -33.07, -8.031 -23.7 -33.03, 
              7.992 -23.7 -33.07, 7.992 -23.66 -33.03]
            }
            coordIndex [
              177, 81, 160, -1, 177, 160, 83, -1, 83, 1, 32, -1, 
              83, 32, 119, -1, 177, 83, 119, -1, 1, 88, 33, -1, 
              33, 32, 1, -1, 88, 89, 34, -1, 34, 33, 88, -1, 
              89, 90, 35, -1, 35, 34, 89, -1, 90, 91, 36, -1, 
              36, 35, 90, -1, 91, 92, 37, -1, 37, 36, 91, -1, 
              92, 93, 38, -1, 38, 37, 92, -1, 93, 94, 39, -1, 
              39, 38, 93, -1, 94, 95, 40, -1, 40, 39, 94, -1, 
              95, 96, 41, -1, 41, 40, 95, -1, 96, 97, 42, -1, 
              42, 41, 96, -1, 97, 98, 43, -1, 43, 42, 97, -1, 
              98, 99, 44, -1, 44, 43, 98, -1, 99, 100, 45, -1, 
              45, 44, 99, -1, 100, 101, 46, -1, 46, 45, 100, -1, 
              101, 102, 47, -1, 47, 46, 101, -1, 102, 103, 48, -1, 
              48, 47, 102, -1, 103, 104, 49, -1, 49, 48, 103, -1, 
              104, 105, 50, -1, 50, 49, 104, -1, 105, 106, 51, -1, 
              51, 50, 105, -1, 106, 107, 52, -1, 52, 51, 106, -1, 
              107, 108, 53, -1, 53, 52, 107, -1, 108, 109, 54, -1, 
              54, 53, 108, -1, 109, 110, 55, -1, 55, 54, 109, -1, 
              110, 111, 56, -1, 56, 55, 110, -1, 111, 112, 57, -1, 
              57, 56, 111, -1, 112, 113, 58, -1, 58, 57, 112, -1, 
              113, 114, 59, -1, 59, 58, 113, -1, 114, 115, 149, -1, 
              149, 59, 114, -1, 29, 86, 118, -1, 118, 60, 29, -1, 
              0, 116, 28, -1, 0, 28, 27, -1, 0, 27, 26, -1, 0, 26, 25, -1, 
              0, 25, 24, -1, 0, 24, 23, -1, 0, 23, 22, -1, 0, 22, 21, -1, 
              0, 21, 20, -1, 0, 20, 19, -1, 0, 19, 18, -1, 0, 18, 17, -1, 
              0, 17, 16, -1, 87, 178, 84, -1, 2, 87, 84, -1, 
              3, 2, 84, -1, 4, 3, 84, -1, 5, 4, 84, -1, 6, 5, 84, -1, 
              7, 6, 84, -1, 8, 7, 84, -1, 9, 8, 84, -1, 10, 9, 84, -1, 
              11, 10, 84, -1, 12, 11, 84, -1, 13, 12, 84, -1, 
              14, 13, 84, -1, 15, 14, 84, -1, 16, 15, 84, -1, 
              0, 16, 84, -1, 576, 578, 572, -1, 572, 574, 576, -1, 
              61, 152, 73, -1, 73, 72, 61, -1, 152, 153, 74, -1, 
              74, 73, 152, -1, 153, 154, 75, -1, 75, 74, 153, -1, 
              154, 155, 76, -1, 76, 75, 154, -1, 155, 156, 77, -1, 
              77, 76, 155, -1, 156, 157, 78, -1, 78, 77, 156, -1, 
              157, 158, 79, -1, 79, 78, 157, -1, 158, 159, 80, -1, 
              80, 79, 158, -1, 159, 161, 175, -1, 175, 80, 159, -1, 
              255, 256, 257, -1, 225, 226, 227, -1, 257, 225, 227, -1, 
              257, 227, 228, -1, 257, 228, 229, -1, 257, 229, 230, -1, 
              257, 230, 231, -1, 257, 231, 232, -1, 257, 232, 233, -1, 
              257, 233, 234, -1, 257, 234, 235, -1, 257, 235, 236, -1, 
              257, 236, 237, -1, 257, 237, 238, -1, 257, 238, 239, -1, 
              257, 239, 240, -1, 257, 240, 241, -1, 257, 241, 242, -1, 
              257, 242, 243, -1, 257, 243, 244, -1, 257, 244, 245, -1, 
              257, 245, 246, -1, 257, 246, 247, -1, 257, 247, 248, -1, 
              257, 248, 249, -1, 257, 249, 250, -1, 257, 250, 251, -1, 
              257, 251, 252, -1, 257, 252, 253, -1, 257, 253, 254, -1, 
              255, 257, 254, -1, 258, 259, 260, -1, 258, 260, 261, -1, 
              258, 261, 262, -1, 258, 262, 263, -1, 258, 263, 264, -1, 
              258, 264, 265, -1, 258, 265, 266, -1, 258, 266, 267, -1, 
              258, 267, 268, -1, 258, 268, 269, -1, 62, 151, 84, -1, 
              84, 178, 70, -1, 84, 70, 69, -1, 84, 69, 68, -1, 
              84, 68, 67, -1, 66, 65, 64, -1, 67, 66, 64, -1, 
              84, 67, 64, -1, 62, 84, 64, -1, 62, 64, 63, -1, 
              557, 86, 0, -1, 0, 85, 557, -1, 29, 115, 116, -1, 
              553, 117, 118, -1, 118, 554, 553, -1, 60, 148, 149, -1, 
              61, 150, 151, -1, 70, 160, 161, -1, 71, 162, 163, -1, 
              72, 164, 165, -1, 81, 174, 175, -1, 82, 176, 177, -1, 
              179, 564, 540, -1, 540, 555, 85, -1, 85, 0, 84, -1, 
              540, 85, 84, -1, 179, 540, 84, -1, 86, 557, 556, -1, 
              556, 30, 554, -1, 86, 556, 554, -1, 86, 554, 118, -1, 
              87, 1, 83, -1, 83, 178, 87, -1, 31, 119, 32, -1, 
              32, 120, 31, -1, 2, 88, 1, -1, 1, 87, 2, -1, 120, 32, 33, -1, 
              33, 121, 120, -1, 3, 89, 88, -1, 88, 2, 3, -1, 
              121, 33, 34, -1, 34, 122, 121, -1, 4, 90, 89, -1, 
              89, 3, 4, -1, 122, 34, 35, -1, 35, 123, 122, -1, 
              5, 91, 90, -1, 90, 4, 5, -1, 123, 35, 36, -1, 36, 124, 123, -1, 
              6, 92, 91, -1, 91, 5, 6, -1, 124, 36, 37, -1, 37, 125, 124, -1, 
              7, 93, 92, -1, 92, 6, 7, -1, 125, 37, 38, -1, 38, 126, 125, -1, 
              8, 94, 93, -1, 93, 7, 8, -1, 126, 38, 39, -1, 39, 127, 126, -1, 
              9, 95, 94, -1, 94, 8, 9, -1, 127, 39, 40, -1, 40, 128, 127, -1, 
              10, 96, 95, -1, 95, 9, 10, -1, 128, 40, 41, -1, 
              41, 129, 128, -1, 11, 97, 96, -1, 96, 10, 11, -1, 
              129, 41, 42, -1, 42, 130, 129, -1, 12, 98, 97, -1, 
              97, 11, 12, -1, 130, 42, 43, -1, 43, 131, 130, -1, 
              13, 99, 98, -1, 98, 12, 13, -1, 131, 43, 44, -1, 
              44, 132, 131, -1, 14, 100, 99, -1, 99, 13, 14, -1, 
              132, 44, 45, -1, 45, 133, 132, -1, 15, 101, 100, -1, 
              100, 14, 15, -1, 133, 45, 46, -1, 46, 134, 133, -1, 
              16, 102, 101, -1, 101, 15, 16, -1, 134, 46, 47, -1, 
              47, 135, 134, -1, 17, 103, 102, -1, 102, 16, 17, -1, 
              135, 47, 48, -1, 48, 136, 135, -1, 18, 104, 103, -1, 
              103, 17, 18, -1, 136, 48, 49, -1, 49, 137, 136, -1, 
              19, 105, 104, -1, 104, 18, 19, -1, 137, 49, 50, -1, 
              50, 138, 137, -1, 20, 106, 105, -1, 105, 19, 20, -1, 
              138, 50, 51, -1, 51, 139, 138, -1, 21, 107, 106, -1, 
              106, 20, 21, -1, 139, 51, 52, -1, 52, 140, 139, -1, 
              22, 108, 107, -1, 107, 21, 22, -1, 140, 52, 53, -1, 
              53, 141, 140, -1, 23, 109, 108, -1, 108, 22, 23, -1, 
              141, 53, 54, -1, 54, 142, 141, -1, 24, 110, 109, -1, 
              109, 23, 24, -1, 142, 54, 55, -1, 55, 143, 142, -1, 
              25, 111, 110, -1, 110, 24, 25, -1, 143, 55, 56, -1, 
              56, 144, 143, -1, 26, 112, 111, -1, 111, 25, 26, -1, 
              144, 56, 57, -1, 57, 145, 144, -1, 27, 113, 112, -1, 
              112, 26, 27, -1, 145, 57, 58, -1, 58, 146, 145, -1, 
              28, 114, 113, -1, 113, 27, 28, -1, 146, 58, 59, -1, 
              59, 147, 146, -1, 116, 115, 114, -1, 114, 28, 116, -1, 
              60, 149, 115, -1, 115, 29, 60, -1, 147, 59, 149, -1, 
              149, 148, 147, -1, 0, 86, 29, -1, 29, 116, 0, -1, 
              148, 60, 118, -1, 118, 117, 148, -1, 72, 165, 150, -1, 
              150, 61, 72, -1, 162, 71, 165, -1, 165, 164, 162, -1, 
              552, 541, 567, -1, 71, 163, 117, -1, 567, 71, 117, -1, 
              552, 567, 117, -1, 552, 117, 553, -1, 62, 152, 61, -1, 
              61, 151, 62, -1, 164, 72, 73, -1, 73, 166, 164, -1, 
              63, 153, 152, -1, 152, 62, 63, -1, 166, 73, 74, -1, 
              74, 167, 166, -1, 64, 154, 153, -1, 153, 63, 64, -1, 
              167, 74, 75, -1, 75, 168, 167, -1, 65, 155, 154, -1, 
              154, 64, 65, -1, 168, 75, 76, -1, 76, 169, 168, -1, 
              66, 156, 155, -1, 155, 65, 66, -1, 169, 76, 77, -1, 
              77, 170, 169, -1, 67, 157, 156, -1, 156, 66, 67, -1, 
              170, 77, 78, -1, 78, 171, 170, -1, 68, 158, 157, -1, 
              157, 67, 68, -1, 171, 78, 79, -1, 79, 172, 171, -1, 
              69, 159, 158, -1, 158, 68, 69, -1, 172, 79, 80, -1, 
              80, 173, 172, -1, 70, 161, 159, -1, 159, 69, 70, -1, 
              81, 175, 161, -1, 161, 160, 81, -1, 173, 80, 175, -1, 
              175, 174, 173, -1, 178, 83, 160, -1, 160, 70, 178, -1, 
              82, 177, 119, -1, 119, 31, 82, -1, 174, 81, 177, -1, 
              177, 176, 174, -1, 176, 82, 163, -1, 163, 162, 176, -1, 
              151, 150, 179, -1, 179, 84, 151, -1, 181, 180, 163, -1, 
              163, 82, 181, -1, 182, 181, 82, -1, 82, 31, 182, -1, 
              183, 182, 31, -1, 31, 120, 183, -1, 184, 183, 120, -1, 
              120, 121, 184, -1, 185, 184, 121, -1, 121, 122, 185, -1, 
              186, 185, 122, -1, 122, 123, 186, -1, 187, 186, 123, -1, 
              123, 124, 187, -1, 188, 187, 124, -1, 124, 125, 188, -1, 
              189, 188, 125, -1, 125, 126, 189, -1, 190, 189, 126, -1, 
              126, 127, 190, -1, 191, 190, 127, -1, 127, 128, 191, -1, 
              192, 191, 128, -1, 128, 129, 192, -1, 193, 192, 129, -1, 
              129, 130, 193, -1, 194, 193, 130, -1, 130, 131, 194, -1, 
              195, 194, 131, -1, 131, 132, 195, -1, 196, 195, 132, -1, 
              132, 133, 196, -1, 197, 196, 133, -1, 133, 134, 197, -1, 
              198, 197, 134, -1, 134, 135, 198, -1, 199, 198, 135, -1, 
              135, 136, 199, -1, 200, 199, 136, -1, 136, 137, 200, -1, 
              201, 200, 137, -1, 137, 138, 201, -1, 202, 201, 138, -1, 
              138, 139, 202, -1, 203, 202, 139, -1, 139, 140, 203, -1, 
              204, 203, 140, -1, 140, 141, 204, -1, 205, 204, 141, -1, 
              141, 142, 205, -1, 206, 205, 142, -1, 142, 143, 206, -1, 
              207, 206, 143, -1, 143, 144, 207, -1, 208, 207, 144, -1, 
              144, 145, 208, -1, 209, 208, 145, -1, 145, 146, 209, -1, 
              210, 209, 146, -1, 146, 147, 210, -1, 211, 210, 147, -1, 
              147, 148, 211, -1, 212, 211, 148, -1, 148, 117, 212, -1, 
              180, 212, 117, -1, 117, 163, 180, -1, 214, 213, 162, -1, 
              162, 164, 214, -1, 215, 214, 164, -1, 164, 166, 215, -1, 
              216, 215, 166, -1, 166, 167, 216, -1, 217, 216, 167, -1, 
              167, 168, 217, -1, 218, 217, 168, -1, 168, 169, 218, -1, 
              219, 218, 169, -1, 169, 170, 219, -1, 220, 219, 170, -1, 
              170, 171, 220, -1, 221, 220, 171, -1, 171, 172, 221, -1, 
              222, 221, 172, -1, 172, 173, 222, -1, 223, 222, 173, -1, 
              173, 174, 223, -1, 224, 223, 174, -1, 174, 176, 224, -1, 
              213, 224, 176, -1, 176, 162, 213, -1, 226, 225, 180, -1, 
              180, 181, 226, -1, 227, 226, 181, -1, 181, 182, 227, -1, 
              228, 227, 182, -1, 182, 183, 228, -1, 229, 228, 183, -1, 
              183, 184, 229, -1, 230, 229, 184, -1, 184, 185, 230, -1, 
              231, 230, 185, -1, 185, 186, 231, -1, 232, 231, 186, -1, 
              186, 187, 232, -1, 233, 232, 187, -1, 187, 188, 233, -1, 
              234, 233, 188, -1, 188, 189, 234, -1, 235, 234, 189, -1, 
              189, 190, 235, -1, 236, 235, 190, -1, 190, 191, 236, -1, 
              237, 236, 191, -1, 191, 192, 237, -1, 238, 237, 192, -1, 
              192, 193, 238, -1, 239, 238, 193, -1, 193, 194, 239, -1, 
              240, 239, 194, -1, 194, 195, 240, -1, 241, 240, 195, -1, 
              195, 196, 241, -1, 242, 241, 196, -1, 196, 197, 242, -1, 
              243, 242, 197, -1, 197, 198, 243, -1, 244, 243, 198, -1, 
              198, 199, 244, -1, 245, 244, 199, -1, 199, 200, 245, -1, 
              246, 245, 200, -1, 200, 201, 246, -1, 247, 246, 201, -1, 
              201, 202, 247, -1, 248, 247, 202, -1, 202, 203, 248, -1, 
              249, 248, 203, -1, 203, 204, 249, -1, 250, 249, 204, -1, 
              204, 205, 250, -1, 251, 250, 205, -1, 205, 206, 251, -1, 
              252, 251, 206, -1, 206, 207, 252, -1, 253, 252, 207, -1, 
              207, 208, 253, -1, 254, 253, 208, -1, 208, 209, 254, -1, 
              255, 254, 209, -1, 209, 210, 255, -1, 256, 255, 210, -1, 
              210, 211, 256, -1, 257, 256, 211, -1, 211, 212, 257, -1, 
              225, 257, 212, -1, 212, 180, 225, -1, 259, 258, 213, -1, 
              213, 214, 259, -1, 260, 259, 214, -1, 214, 215, 260, -1, 
              261, 260, 215, -1, 215, 216, 261, -1, 262, 261, 216, -1, 
              216, 217, 262, -1, 263, 262, 217, -1, 217, 218, 263, -1, 
              264, 263, 218, -1, 218, 219, 264, -1, 265, 264, 219, -1, 
              219, 220, 265, -1, 266, 265, 220, -1, 220, 221, 266, -1, 
              267, 266, 221, -1, 221, 222, 267, -1, 268, 267, 222, -1, 
              222, 223, 268, -1, 269, 268, 223, -1, 223, 224, 269, -1, 
              258, 269, 224, -1, 224, 213, 258, -1, 430, 351, 447, -1, 
              302, 271, 353, -1, 389, 302, 353, -1, 447, 389, 353, -1, 
              430, 447, 353, -1, 271, 302, 303, -1, 303, 358, 271, -1, 
              358, 303, 304, -1, 304, 359, 358, -1, 359, 304, 305, -1, 
              305, 360, 359, -1, 360, 305, 306, -1, 306, 361, 360, -1, 
              361, 306, 307, -1, 307, 362, 361, -1, 362, 307, 308, -1, 
              308, 363, 362, -1, 363, 308, 309, -1, 309, 364, 363, -1, 
              364, 309, 310, -1, 310, 365, 364, -1, 365, 310, 311, -1, 
              311, 366, 365, -1, 366, 311, 312, -1, 312, 367, 366, -1, 
              367, 312, 313, -1, 313, 368, 367, -1, 368, 313, 314, -1, 
              314, 369, 368, -1, 369, 314, 315, -1, 315, 370, 369, -1, 
              370, 315, 316, -1, 316, 371, 370, -1, 371, 316, 317, -1, 
              317, 372, 371, -1, 372, 317, 318, -1, 318, 373, 372, -1, 
              373, 318, 319, -1, 319, 374, 373, -1, 374, 319, 320, -1, 
              320, 375, 374, -1, 375, 320, 321, -1, 321, 376, 375, -1, 
              376, 321, 322, -1, 322, 377, 376, -1, 377, 322, 323, -1, 
              323, 378, 377, -1, 378, 323, 324, -1, 324, 379, 378, -1, 
              379, 324, 325, -1, 325, 380, 379, -1, 380, 325, 326, -1, 
              326, 381, 380, -1, 381, 326, 327, -1, 327, 382, 381, -1, 
              382, 327, 328, -1, 328, 383, 382, -1, 383, 328, 329, -1, 
              329, 384, 383, -1, 384, 329, 419, -1, 419, 385, 384, -1, 
              299, 330, 388, -1, 388, 356, 299, -1, 298, 386, 270, -1, 
              354, 448, 357, -1, 354, 357, 272, -1, 354, 272, 273, -1, 
              354, 273, 274, -1, 354, 274, 275, -1, 354, 275, 276, -1, 
              354, 276, 277, -1, 354, 277, 278, -1, 354, 278, 279, -1, 
              354, 279, 280, -1, 354, 280, 281, -1, 354, 281, 282, -1, 
              354, 282, 283, -1, 354, 283, 284, -1, 354, 284, 285, -1, 
              354, 285, 286, -1, 270, 354, 286, -1, 270, 286, 287, -1, 
              270, 287, 288, -1, 270, 288, 289, -1, 270, 289, 290, -1, 
              270, 290, 291, -1, 270, 291, 292, -1, 270, 292, 293, -1, 
              270, 293, 294, -1, 270, 294, 295, -1, 270, 295, 296, -1, 
              270, 296, 297, -1, 298, 270, 297, -1, 586, 580, 582, -1, 
              582, 584, 586, -1, 331, 342, 343, -1, 343, 422, 331, -1, 
              422, 343, 344, -1, 344, 423, 422, -1, 423, 344, 345, -1, 
              345, 424, 423, -1, 424, 345, 346, -1, 346, 425, 424, -1, 
              425, 346, 347, -1, 347, 426, 425, -1, 426, 347, 348, -1, 
              348, 427, 426, -1, 427, 348, 349, -1, 349, 428, 427, -1, 
              428, 349, 350, -1, 350, 429, 428, -1, 429, 350, 445, -1, 
              445, 431, 429, -1, 527, 526, 525, -1, 527, 525, 524, -1, 
              527, 524, 523, -1, 527, 523, 522, -1, 527, 522, 521, -1, 
              527, 521, 520, -1, 527, 520, 519, -1, 527, 519, 518, -1, 
              527, 518, 517, -1, 527, 517, 516, -1, 527, 516, 515, -1, 
              527, 515, 514, -1, 527, 514, 513, -1, 527, 513, 512, -1, 
              527, 512, 511, -1, 527, 511, 510, -1, 527, 510, 509, -1, 
              527, 509, 508, -1, 527, 508, 507, -1, 527, 507, 506, -1, 
              527, 506, 505, -1, 527, 505, 504, -1, 527, 504, 503, -1, 
              527, 503, 502, -1, 527, 502, 501, -1, 527, 501, 500, -1, 
              527, 500, 499, -1, 527, 499, 498, -1, 527, 498, 497, -1, 
              497, 496, 495, -1, 527, 497, 495, -1, 530, 529, 528, -1, 
              528, 539, 538, -1, 528, 538, 537, -1, 528, 537, 536, -1, 
              528, 536, 535, -1, 528, 535, 534, -1, 528, 534, 533, -1, 
              528, 533, 532, -1, 528, 532, 531, -1, 530, 528, 531, -1, 
              334, 335, 336, -1, 334, 336, 337, -1, 340, 448, 354, -1, 
              339, 340, 354, -1, 338, 339, 354, -1, 337, 338, 354, -1, 
              334, 337, 354, -1, 354, 421, 332, -1, 334, 354, 332, -1, 
              334, 332, 333, -1, 355, 270, 356, -1, 356, 561, 355, -1, 
              299, 386, 385, -1, 558, 388, 387, -1, 387, 559, 558, -1, 
              330, 419, 418, -1, 331, 421, 420, -1, 340, 431, 430, -1, 
              341, 433, 432, -1, 342, 435, 434, -1, 351, 445, 444, -1, 
              352, 447, 446, -1, 569, 449, 354, -1, 270, 355, 563, -1, 
              354, 270, 563, -1, 569, 354, 563, -1, 569, 563, 542, -1, 
              300, 562, 561, -1, 300, 561, 356, -1, 300, 356, 388, -1, 
              300, 388, 558, -1, 357, 448, 353, -1, 353, 271, 357, -1, 
              301, 390, 302, -1, 302, 389, 301, -1, 272, 357, 271, -1, 
              271, 358, 272, -1, 390, 391, 303, -1, 303, 302, 390, -1, 
              273, 272, 358, -1, 358, 359, 273, -1, 391, 392, 304, -1, 
              304, 303, 391, -1, 274, 273, 359, -1, 359, 360, 274, -1, 
              392, 393, 305, -1, 305, 304, 392, -1, 275, 274, 360, -1, 
              360, 361, 275, -1, 393, 394, 306, -1, 306, 305, 393, -1, 
              276, 275, 361, -1, 361, 362, 276, -1, 394, 395, 307, -1, 
              307, 306, 394, -1, 277, 276, 362, -1, 362, 363, 277, -1, 
              395, 396, 308, -1, 308, 307, 395, -1, 278, 277, 363, -1, 
              363, 364, 278, -1, 396, 397, 309, -1, 309, 308, 396, -1, 
              279, 278, 364, -1, 364, 365, 279, -1, 397, 398, 310, -1, 
              310, 309, 397, -1, 280, 279, 365, -1, 365, 366, 280, -1, 
              398, 399, 311, -1, 311, 310, 398, -1, 281, 280, 366, -1, 
              366, 367, 281, -1, 399, 400, 312, -1, 312, 311, 399, -1, 
              282, 281, 367, -1, 367, 368, 282, -1, 400, 401, 313, -1, 
              313, 312, 400, -1, 283, 282, 368, -1, 368, 369, 283, -1, 
              401, 402, 314, -1, 314, 313, 401, -1, 284, 283, 369, -1, 
              369, 370, 284, -1, 402, 403, 315, -1, 315, 314, 402, -1, 
              285, 284, 370, -1, 370, 371, 285, -1, 403, 404, 316, -1, 
              316, 315, 403, -1, 286, 285, 371, -1, 371, 372, 286, -1, 
              404, 405, 317, -1, 317, 316, 404, -1, 287, 286, 372, -1, 
              372, 373, 287, -1, 405, 406, 318, -1, 318, 317, 405, -1, 
              288, 287, 373, -1, 373, 374, 288, -1, 406, 407, 319, -1, 
              319, 318, 406, -1, 289, 288, 374, -1, 374, 375, 289, -1, 
              407, 408, 320, -1, 320, 319, 407, -1, 290, 289, 375, -1, 
              375, 376, 290, -1, 408, 409, 321, -1, 321, 320, 408, -1, 
              291, 290, 376, -1, 376, 377, 291, -1, 409, 410, 322, -1, 
              322, 321, 409, -1, 292, 291, 377, -1, 377, 378, 292, -1, 
              410, 411, 323, -1, 323, 322, 410, -1, 293, 292, 378, -1, 
              378, 379, 293, -1, 411, 412, 324, -1, 324, 323, 411, -1, 
              294, 293, 379, -1, 379, 380, 294, -1, 412, 413, 325, -1, 
              325, 324, 412, -1, 295, 294, 380, -1, 380, 381, 295, -1, 
              413, 414, 326, -1, 326, 325, 413, -1, 296, 295, 381, -1, 
              381, 382, 296, -1, 414, 415, 327, -1, 327, 326, 414, -1, 
              297, 296, 382, -1, 382, 383, 297, -1, 415, 416, 328, -1, 
              328, 327, 415, -1, 298, 297, 383, -1, 383, 384, 298, -1, 
              416, 417, 329, -1, 329, 328, 416, -1, 386, 298, 384, -1, 
              384, 385, 386, -1, 330, 299, 385, -1, 385, 419, 330, -1, 
              417, 418, 419, -1, 419, 329, 417, -1, 270, 386, 299, -1, 
              299, 356, 270, -1, 418, 387, 388, -1, 388, 330, 418, -1, 
              342, 331, 420, -1, 420, 435, 342, -1, 432, 434, 435, -1, 
              435, 341, 432, -1, 543, 560, 559, -1, 543, 559, 387, -1, 
              387, 433, 341, -1, 543, 387, 341, -1, 543, 341, 570, -1, 
              332, 421, 331, -1, 331, 422, 332, -1, 434, 436, 343, -1, 
              343, 342, 434, -1, 333, 332, 422, -1, 422, 423, 333, -1, 
              436, 437, 344, -1, 344, 343, 436, -1, 334, 333, 423, -1, 
              423, 424, 334, -1, 437, 438, 345, -1, 345, 344, 437, -1, 
              335, 334, 424, -1, 424, 425, 335, -1, 438, 439, 346, -1, 
              346, 345, 438, -1, 336, 335, 425, -1, 425, 426, 336, -1, 
              439, 440, 347, -1, 347, 346, 439, -1, 337, 336, 426, -1, 
              426, 427, 337, -1, 440, 441, 348, -1, 348, 347, 440, -1, 
              338, 337, 427, -1, 427, 428, 338, -1, 441, 442, 349, -1, 
              349, 348, 441, -1, 339, 338, 428, -1, 428, 429, 339, -1, 
              442, 443, 350, -1, 350, 349, 442, -1, 340, 339, 429, -1, 
              429, 431, 340, -1, 351, 430, 431, -1, 431, 445, 351, -1, 
              443, 444, 445, -1, 445, 350, 443, -1, 448, 340, 430, -1, 
              430, 353, 448, -1, 352, 301, 389, -1, 389, 447, 352, -1, 
              444, 446, 447, -1, 447, 351, 444, -1, 446, 432, 433, -1, 
              433, 352, 446, -1, 421, 354, 449, -1, 449, 420, 421, -1, 
              451, 352, 433, -1, 433, 450, 451, -1, 452, 301, 352, -1, 
              352, 451, 452, -1, 453, 390, 301, -1, 301, 452, 453, -1, 
              454, 391, 390, -1, 390, 453, 454, -1, 455, 392, 391, -1, 
              391, 454, 455, -1, 456, 393, 392, -1, 392, 455, 456, -1, 
              457, 394, 393, -1, 393, 456, 457, -1, 458, 395, 394, -1, 
              394, 457, 458, -1, 459, 396, 395, -1, 395, 458, 459, -1, 
              460, 397, 396, -1, 396, 459, 460, -1, 461, 398, 397, -1, 
              397, 460, 461, -1, 462, 399, 398, -1, 398, 461, 462, -1, 
              463, 400, 399, -1, 399, 462, 463, -1, 464, 401, 400, -1, 
              400, 463, 464, -1, 465, 402, 401, -1, 401, 464, 465, -1, 
              466, 403, 402, -1, 402, 465, 466, -1, 467, 404, 403, -1, 
              403, 466, 467, -1, 468, 405, 404, -1, 404, 467, 468, -1, 
              469, 406, 405, -1, 405, 468, 469, -1, 470, 407, 406, -1, 
              406, 469, 470, -1, 471, 408, 407, -1, 407, 470, 471, -1, 
              472, 409, 408, -1, 408, 471, 472, -1, 473, 410, 409, -1, 
              409, 472, 473, -1, 474, 411, 410, -1, 410, 473, 474, -1, 
              475, 412, 411, -1, 411, 474, 475, -1, 476, 413, 412, -1, 
              412, 475, 476, -1, 477, 414, 413, -1, 413, 476, 477, -1, 
              478, 415, 414, -1, 414, 477, 478, -1, 479, 416, 415, -1, 
              415, 478, 479, -1, 480, 417, 416, -1, 416, 479, 480, -1, 
              481, 418, 417, -1, 417, 480, 481, -1, 482, 387, 418, -1, 
              418, 481, 482, -1, 450, 433, 387, -1, 387, 482, 450, -1, 
              484, 434, 432, -1, 432, 483, 484, -1, 485, 436, 434, -1, 
              434, 484, 485, -1, 486, 437, 436, -1, 436, 485, 486, -1, 
              487, 438, 437, -1, 437, 486, 487, -1, 488, 439, 438, -1, 
              438, 487, 488, -1, 489, 440, 439, -1, 439, 488, 489, -1, 
              490, 441, 440, -1, 440, 489, 490, -1, 491, 442, 441, -1, 
              441, 490, 491, -1, 492, 443, 442, -1, 442, 491, 492, -1, 
              493, 444, 443, -1, 443, 492, 493, -1, 494, 446, 444, -1, 
              444, 493, 494, -1, 483, 432, 446, -1, 446, 494, 483, -1, 
              496, 451, 450, -1, 450, 495, 496, -1, 497, 452, 451, -1, 
              451, 496, 497, -1, 498, 453, 452, -1, 452, 497, 498, -1, 
              499, 454, 453, -1, 453, 498, 499, -1, 500, 455, 454, -1, 
              454, 499, 500, -1, 501, 456, 455, -1, 455, 500, 501, -1, 
              502, 457, 456, -1, 456, 501, 502, -1, 503, 458, 457, -1, 
              457, 502, 503, -1, 504, 459, 458, -1, 458, 503, 504, -1, 
              505, 460, 459, -1, 459, 504, 505, -1, 506, 461, 460, -1, 
              460, 505, 506, -1, 507, 462, 461, -1, 461, 506, 507, -1, 
              508, 463, 462, -1, 462, 507, 508, -1, 509, 464, 463, -1, 
              463, 508, 509, -1, 510, 465, 464, -1, 464, 509, 510, -1, 
              511, 466, 465, -1, 465, 510, 511, -1, 512, 467, 466, -1, 
              466, 511, 512, -1, 513, 468, 467, -1, 467, 512, 513, -1, 
              514, 469, 468, -1, 468, 513, 514, -1, 515, 470, 469, -1, 
              469, 514, 515, -1, 516, 471, 470, -1, 470, 515, 516, -1, 
              517, 472, 471, -1, 471, 516, 517, -1, 518, 473, 472, -1, 
              472, 517, 518, -1, 519, 474, 473, -1, 473, 518, 519, -1, 
              520, 475, 474, -1, 474, 519, 520, -1, 521, 476, 475, -1, 
              475, 520, 521, -1, 522, 477, 476, -1, 476, 521, 522, -1, 
              523, 478, 477, -1, 477, 522, 523, -1, 524, 479, 478, -1, 
              478, 523, 524, -1, 525, 480, 479, -1, 479, 524, 525, -1, 
              526, 481, 480, -1, 480, 525, 526, -1, 527, 482, 481, -1, 
              481, 526, 527, -1, 495, 450, 482, -1, 482, 527, 495, -1, 
              529, 484, 483, -1, 483, 528, 529, -1, 530, 485, 484, -1, 
              484, 529, 530, -1, 531, 486, 485, -1, 485, 530, 531, -1, 
              532, 487, 486, -1, 486, 531, 532, -1, 533, 488, 487, -1, 
              487, 532, 533, -1, 534, 489, 488, -1, 488, 533, 534, -1, 
              535, 490, 489, -1, 489, 534, 535, -1, 536, 491, 490, -1, 
              490, 535, 536, -1, 537, 492, 491, -1, 491, 536, 537, -1, 
              538, 493, 492, -1, 492, 537, 538, -1, 539, 494, 493, -1, 
              493, 538, 539, -1, 528, 483, 494, -1, 494, 539, 528, -1, 
              71, 567, 566, -1, 566, 565, 564, -1, 71, 566, 564, -1, 
              71, 564, 179, -1, 179, 150, 165, -1, 71, 179, 165, -1, 
              449, 569, 568, -1, 568, 571, 570, -1, 449, 568, 570, -1, 
              570, 341, 435, -1, 449, 570, 435, -1, 449, 435, 420, -1, 
              575, 544, 555, -1, 555, 540, 575, -1, 577, 545, 565, -1, 
              565, 566, 577, -1, 579, 546, 541, -1, 541, 552, 579, -1, 
              573, 547, 30, -1, 30, 556, 573, -1, 583, 548, 560, -1, 
              560, 543, 583, -1, 585, 549, 571, -1, 571, 568, 585, -1, 
              587, 550, 542, -1, 542, 563, 587, -1, 581, 551, 562, -1, 
              562, 300, 581, -1, 553, 554, 30, -1, 30, 552, 553, -1, 
              556, 557, 85, -1, 85, 555, 556, -1, 559, 560, 300, -1, 
              300, 558, 559, -1, 562, 563, 355, -1, 355, 561, 562, -1, 
              540, 564, 565, -1, 541, 566, 567, -1, 542, 568, 569, -1, 
              543, 570, 571, -1, 544, 572, 573, -1, 545, 574, 575, -1, 
              546, 576, 577, -1, 547, 578, 579, -1, 548, 580, 581, -1, 
              549, 582, 583, -1, 550, 584, 585, -1, 551, 586, 587, -1, 
              575, 574, 572, -1, 572, 544, 575, -1, 577, 576, 574, -1, 
              574, 545, 577, -1, 579, 578, 576, -1, 576, 546, 579, -1, 
              573, 572, 578, -1, 578, 547, 573, -1, 544, 573, 556, -1, 
              556, 555, 544, -1, 545, 575, 540, -1, 540, 565, 545, -1, 
              546, 577, 566, -1, 566, 541, 546, -1, 547, 579, 552, -1, 
              552, 30, 547, -1, 583, 582, 580, -1, 580, 548, 583, -1, 
              585, 584, 582, -1, 582, 549, 585, -1, 587, 586, 584, -1, 
              584, 550, 587, -1, 581, 580, 586, -1, 586, 551, 581, -1, 
              548, 581, 300, -1, 300, 560, 548, -1, 549, 583, 543, -1, 
              543, 571, 549, -1, 550, 585, 568, -1, 568, 542, 550, -1, 
              551, 587, 563, -1, 563, 562, 551, -1]
            }
        }
      ]
    },
    DEF obj_02-2657 Transform {
      translation 0 31.4 7.618
      rotation -1 0 0 -1.571
      children [
        Shape {
          appearance Appearance {
            material Material {
              diffuseColor 0.588 0.588 0.588
              ambientIntensity 1.0
              specularColor 0 0 0
              shininess 0.145
              transparency 0
            }
          }
          geometry DEF obj_02-2657-FACES IndexedFaceSet {
            ccw TRUE
            solid FALSE
            coord DEF obj_02-2657-COORD Coordinate { point [
              12.56 0.03937 -0.3441, 11.49 0 -0.35, 10.53 0 -0.4721, 
              9.683 0 -0.6502, 8.949 0 -0.8636, 8.325 0 -1.091, 
              7.81 0 -1.312, 7.406 0 -1.505, 7.042 0 -1.626, 
              6.647 0 -1.661, 6.223 0 -1.623, 5.775 0 -1.528, 
              5.309 0 -1.388, 4.831 0 -1.218, 4.326 0 -1.026, 
              3.851 0 -1.396, 3.375 0 -1.736, 2.861 0 -2.047, 
              2.286 0 -2.314, 1.632 0 -2.522, 0.8778 0 -2.658, 
              0.002082 0 -2.707, -0.8736 0 -2.658, -1.628 0 -2.522, 
              -2.282 0 -2.314, -2.856 0 -2.047, -3.371 0 -1.736, 
              -3.847 0 -1.396, -4.321 0 -1.026, -4.826 0 -1.219, 
              -5.303 0 -1.388, -5.769 0 -1.528, -6.216 0 -1.624, 
              -6.64 0 -1.661, -7.034 0 -1.626, -7.397 0 -1.505, 
              -7.803 0 -1.312, -8.32 0 -1.09, -8.946 0 -0.8626, 
              -9.682 0 -0.6495, -10.53 0 -0.4717, -11.49 0 -0.3499, 
              -12.52 0 -0.3064, -12.52 0 0.5512, 12.56 0.03937 0.5906, 
              12.56 0.748 -0.3441, 11.49 0.748 -0.3893, 10.54 0.748 -0.511, 
              9.693 0.748 -0.6885, 8.961 0.748 -0.901, 8.34 0.748 -1.128, 
              7.827 0.748 -1.348, 7.421 0.748 -1.542, 7.05 0.748 -1.665, 
              6.647 0.748 -1.7, 6.217 0.748 -1.662, 5.765 0.748 -1.566, 
              5.297 0.748 -1.425, 4.817 0.748 -1.255, 4.332 0.748 -1.071, 
              3.875 0.748 -1.427, 3.397 0.748 -1.769, 2.879 0.748 -2.082, 
              2.301 0.748 -2.351, 1.642 0.748 -2.561, 0.8824 0.748 -2.697, 
              0.002082 0.748 -2.746, -0.8782 0.748 -2.697, -1.638 0.748 -2.561, 
              -2.297 0.748 -2.351, -2.875 0.748 -2.082, -3.393 0.748 -1.769, 
              -3.871 0.748 -1.427, -4.328 0.748 -1.071, -4.812 0.748 -1.256, 
              -5.291 0.748 -1.426, -5.759 0.748 -1.566, -6.21 0.748 -1.663, 
              -6.64 0.748 -1.701, -7.042 0.748 -1.665, -7.412 0.748 -1.542, 
              -7.819 0.748 -1.348, -8.335 0.748 -1.127, -8.958 0.748 -0.9, 
              -9.692 0.748 -0.6877, -10.54 0.748 -0.5106, -11.49 0.748 -0.3891, 
              -12.56 0.748 -0.3441, -12.56 0.748 0.5906, 12.56 0.748 0.5906, 
              12.52 0 -0.3064, 11.49 0.03937 -0.3893, 10.54 0.03937 -0.511, 
              9.693 0.03937 -0.6885, 8.961 0.03937 -0.901, 8.34 0.03937 -1.128, 
              7.827 0.03937 -1.348, 7.421 0.03937 -1.542, 7.05 0.03937 -1.665, 
              6.647 0.03937 -1.7, 6.217 0.03937 -1.662, 5.765 0.03937 -1.566, 
              5.297 0.03937 -1.425, 4.817 0.03937 -1.255, 4.332 0.03937 -1.071, 
              3.875 0.03937 -1.427, 3.397 0.03937 -1.769, 2.879 0.03937 -2.082, 
              2.301 0.03937 -2.351, 1.642 0.03937 -2.561, 0.8824 0.03937 -2.697, 
              0.002082 0.03937 -2.746, -0.8782 0.03937 -2.697, 
              -1.638 0.03937 -2.561, -2.297 0.03937 -2.351, -2.875 0.03937 -2.082, 
              -3.393 0.03937 -1.769, -3.871 0.03937 -1.427, -4.328 0.03937 -1.071, 
              -4.812 0.03937 -1.256, -5.291 0.03937 -1.426, -5.759 0.03937 -1.566, 
              -6.21 0.03937 -1.663, -6.64 0.03937 -1.701, -7.042 0.03937 -1.665, 
              -7.412 0.03937 -1.542, -7.819 0.03937 -1.348, -8.335 0.03937 -1.127, 
              -8.958 0.03937 -0.9, -9.692 0.03937 -0.6877, -10.54 0.03937 -0.5106, 
              -11.49 0.03937 -0.3891, -12.56 0.03937 -0.3441, 
              -12.56 0.03937 0.5906, 12.52 0 0.5512, 12.52 0.7874 -0.3064, 
              11.49 0.7874 -0.35, 10.53 0.7874 -0.4721, 9.683 0.7874 -0.6502, 
              8.949 0.7874 -0.8636, 8.325 0.7874 -1.091, 7.81 0.7874 -1.312, 
              7.406 0.7874 -1.505, 7.042 0.7874 -1.626, 6.647 0.7874 -1.661, 
              6.223 0.7874 -1.623, 5.775 0.7874 -1.528, 5.309 0.7874 -1.388, 
              4.831 0.7874 -1.218, 4.326 0.7874 -1.026, 3.851 0.7874 -1.396, 
              3.375 0.7874 -1.736, 2.861 0.7874 -2.047, 2.286 0.7874 -2.314, 
              1.632 0.7874 -2.522, 0.8778 0.7874 -2.658, 0.002082 0.7874 -2.707, 
              -0.8736 0.7874 -2.658, -1.628 0.7874 -2.522, -2.282 0.7874 -2.314, 
              -2.856 0.7874 -2.047, -3.371 0.7874 -1.736, -3.847 0.7874 -1.396, 
              -4.321 0.7874 -1.026, -4.826 0.7874 -1.219, -5.303 0.7874 -1.388, 
              -5.769 0.7874 -1.528, -6.216 0.7874 -1.624, -6.64 0.7874 -1.661, 
              -7.034 0.7874 -1.626, -7.397 0.7874 -1.505, -7.803 0.7874 -1.312, 
              -8.32 0.7874 -1.09, -8.946 0.7874 -0.8626, -9.682 0.7874 -0.6495, 
              -10.53 0.7874 -0.4717, -11.49 0.7874 -0.3499, -12.52 0.7874 -0.3064, 
              -12.52 0.7874 0.5512, 12.52 0.7874 0.5512, 12.36 0.7874 -0.1554, 
              11.47 0.7874 -0.1929, 10.5 0.7874 -0.3167, 9.645 0.7874 -0.4974, 
              8.9 0.7874 -0.7138, 8.267 0.7874 -0.9448, 7.746 0.7874 -1.169, 
              7.347 0.7874 -1.359, 7.01 0.7874 -1.471, 6.648 0.7874 -1.503, 
              6.247 0.7874 -1.467, 5.814 0.7874 -1.375, 5.358 0.7874 -1.238, 
              4.885 0.7874 -1.071, 4.299 0.7874 -0.8474, 3.757 0.7874 -1.27, 
              3.289 0.7874 -1.605, 2.786 0.7874 -1.908, 2.229 0.7874 -2.167, 
              1.594 0.7874 -2.369, 0.8594 0.7874 -2.501, 0.002082 0.7874 -2.549, 
              -0.8552 0.7874 -2.501, -1.59 0.7874 -2.369, -2.225 0.7874 -2.167, 
              -2.782 0.7874 -1.908, -3.285 0.7874 -1.605, -3.753 0.7874 -1.27, 
              -4.295 0.7874 -0.8474, -4.88 0.7874 -1.071, -5.352 0.7874 -1.238, 
              -5.808 0.7874 -1.375, -6.24 0.7874 -1.468, -6.64 0.7874 -1.503, 
              -7.002 0.7874 -1.471, -7.338 0.7874 -1.359, -7.738 0.7874 -1.168, 
              -8.262 0.7874 -0.9437, -8.897 0.7874 -0.7128, -9.644 0.7874 -0.4966, 
              -10.5 0.7874 -0.3163, -11.47 0.7874 -0.1928, -12.36 0.7874 -0.1554, 
              -12.36 0.7874 0.3937, 12.36 0.7874 0.3937, 12.32 0.8268 -0.1176, 
              11.47 0.8268 -0.1537, 10.5 0.8268 -0.2779, 9.635 0.8268 -0.4591, 
              8.888 0.8268 -0.6764, 8.253 0.8268 -0.9082, 7.729 0.8268 -1.133, 
              7.332 0.8268 -1.322, 7.002 0.8268 -1.432, 6.648 0.8268 -1.463, 
              6.252 0.8268 -1.428, 5.824 0.8268 -1.337, 5.37 0.8268 -1.201, 
              4.899 0.8268 -1.034, 4.292 0.8268 -0.8028, 3.733 0.8268 -1.238, 
              3.267 0.8268 -1.572, 2.768 0.8268 -1.873, 2.215 0.8268 -2.13, 
              1.585 0.8268 -2.331, 0.8548 0.8268 -2.462, 0.002082 0.8268 -2.51, 
              -0.8506 0.8268 -2.462, -1.581 0.8268 -2.331, -2.211 0.8268 -2.13, 
              -2.764 0.8268 -1.873, -3.263 0.8268 -1.572, -3.729 0.8268 -1.238, 
              -4.288 0.8268 -0.8027, -4.894 0.8268 -1.034, -5.365 0.8268 -1.201, 
              -5.818 0.8268 -1.337, -6.245 0.8268 -1.429, -6.64 0.8268 -1.464, 
              -6.994 0.8268 -1.432, -7.323 0.8268 -1.322, -7.722 0.8268 -1.132, 
              -8.248 0.8268 -0.9071, -8.885 0.8268 -0.6753, -9.635 0.8268 -0.4584, 
              -10.5 0.8268 -0.2774, -11.47 0.8268 -0.1536, -12.32 0.8268 -0.1176, 
              -12.32 0.8268 0.3543, 12.32 0.8268 0.3543]
            }
            coordIndex [
              0, 91, 46, -1, 46, 45, 0, -1, 91, 92, 47, -1, 47, 46, 91, -1, 
              92, 93, 48, -1, 48, 47, 92, -1, 93, 94, 49, -1, 
              49, 48, 93, -1, 94, 95, 50, -1, 50, 49, 94, -1, 
              95, 96, 51, -1, 51, 50, 95, -1, 96, 97, 52, -1, 
              52, 51, 96, -1, 97, 98, 53, -1, 53, 52, 97, -1, 
              98, 99, 54, -1, 54, 53, 98, -1, 99, 100, 55, -1, 
              55, 54, 99, -1, 100, 101, 56, -1, 56, 55, 100, -1, 
              101, 102, 57, -1, 57, 56, 101, -1, 102, 103, 58, -1, 
              58, 57, 102, -1, 103, 104, 59, -1, 59, 58, 103, -1, 
              104, 105, 60, -1, 60, 59, 104, -1, 105, 106, 61, -1, 
              61, 60, 105, -1, 106, 107, 62, -1, 62, 61, 106, -1, 
              107, 108, 63, -1, 63, 62, 107, -1, 108, 109, 64, -1, 
              64, 63, 108, -1, 109, 110, 65, -1, 65, 64, 109, -1, 
              110, 111, 66, -1, 66, 65, 110, -1, 111, 112, 67, -1, 
              67, 66, 111, -1, 112, 113, 68, -1, 68, 67, 112, -1, 
              113, 114, 69, -1, 69, 68, 113, -1, 114, 115, 70, -1, 
              70, 69, 114, -1, 115, 116, 71, -1, 71, 70, 115, -1, 
              116, 117, 72, -1, 72, 71, 116, -1, 117, 118, 73, -1, 
              73, 72, 117, -1, 118, 119, 74, -1, 74, 73, 118, -1, 
              119, 120, 75, -1, 75, 74, 119, -1, 120, 121, 76, -1, 
              76, 75, 120, -1, 121, 122, 77, -1, 77, 76, 121, -1, 
              122, 123, 78, -1, 78, 77, 122, -1, 123, 124, 79, -1, 
              79, 78, 123, -1, 124, 125, 80, -1, 80, 79, 124, -1, 
              125, 126, 81, -1, 81, 80, 125, -1, 126, 127, 82, -1, 
              82, 81, 126, -1, 127, 128, 83, -1, 83, 82, 127, -1, 
              128, 129, 84, -1, 84, 83, 128, -1, 129, 130, 85, -1, 
              85, 84, 129, -1, 130, 131, 86, -1, 86, 85, 130, -1, 
              131, 132, 87, -1, 87, 86, 131, -1, 132, 133, 88, -1, 
              88, 87, 132, -1, 133, 44, 89, -1, 89, 88, 133, -1, 
              44, 0, 45, -1, 45, 89, 44, -1, 18, 17, 16, -1, 
              9, 8, 7, -1, 10, 9, 7, -1, 10, 7, 6, -1, 11, 10, 6, -1, 
              12, 11, 6, -1, 13, 12, 6, -1, 14, 13, 6, -1, 90, 134, 43, -1, 
              1, 90, 43, -1, 2, 1, 43, -1, 3, 2, 43, -1, 4, 3, 43, -1, 
              5, 4, 43, -1, 6, 5, 43, -1, 14, 6, 43, -1, 43, 42, 41, -1, 
              43, 41, 40, -1, 14, 43, 40, -1, 14, 40, 39, -1, 
              35, 34, 33, -1, 35, 33, 32, -1, 36, 35, 32, -1, 
              36, 32, 31, -1, 36, 31, 30, -1, 37, 36, 30, -1, 
              37, 30, 29, -1, 37, 29, 28, -1, 38, 37, 28, -1, 
              39, 38, 28, -1, 14, 39, 28, -1, 14, 28, 27, -1, 
              15, 14, 27, -1, 15, 27, 26, -1, 16, 15, 26, -1, 
              16, 26, 25, -1, 16, 25, 24, -1, 16, 24, 23, -1, 
              16, 23, 22, -1, 16, 22, 21, -1, 16, 21, 20, -1, 
              16, 20, 19, -1, 18, 16, 19, -1, 1, 91, 0, -1, 0, 90, 1, -1, 
              135, 45, 46, -1, 46, 136, 135, -1, 2, 92, 91, -1, 
              91, 1, 2, -1, 136, 46, 47, -1, 47, 137, 136, -1, 
              3, 93, 92, -1, 92, 2, 3, -1, 137, 47, 48, -1, 48, 138, 137, -1, 
              4, 94, 93, -1, 93, 3, 4, -1, 138, 48, 49, -1, 49, 139, 138, -1, 
              5, 95, 94, -1, 94, 4, 5, -1, 139, 49, 50, -1, 50, 140, 139, -1, 
              6, 96, 95, -1, 95, 5, 6, -1, 140, 50, 51, -1, 51, 141, 140, -1, 
              7, 97, 96, -1, 96, 6, 7, -1, 141, 51, 52, -1, 52, 142, 141, -1, 
              8, 98, 97, -1, 97, 7, 8, -1, 142, 52, 53, -1, 53, 143, 142, -1, 
              9, 99, 98, -1, 98, 8, 9, -1, 143, 53, 54, -1, 54, 144, 143, -1, 
              10, 100, 99, -1, 99, 9, 10, -1, 144, 54, 55, -1, 
              55, 145, 144, -1, 11, 101, 100, -1, 100, 10, 11, -1, 
              145, 55, 56, -1, 56, 146, 145, -1, 12, 102, 101, -1, 
              101, 11, 12, -1, 146, 56, 57, -1, 57, 147, 146, -1, 
              13, 103, 102, -1, 102, 12, 13, -1, 147, 57, 58, -1, 
              58, 148, 147, -1, 14, 104, 103, -1, 103, 13, 14, -1, 
              148, 58, 59, -1, 59, 149, 148, -1, 15, 105, 104, -1, 
              104, 14, 15, -1, 149, 59, 60, -1, 60, 150, 149, -1, 
              16, 106, 105, -1, 105, 15, 16, -1, 150, 60, 61, -1, 
              61, 151, 150, -1, 17, 107, 106, -1, 106, 16, 17, -1, 
              151, 61, 62, -1, 62, 152, 151, -1, 18, 108, 107, -1, 
              107, 17, 18, -1, 152, 62, 63, -1, 63, 153, 152, -1, 
              19, 109, 108, -1, 108, 18, 19, -1, 153, 63, 64, -1, 
              64, 154, 153, -1, 20, 110, 109, -1, 109, 19, 20, -1, 
              154, 64, 65, -1, 65, 155, 154, -1, 21, 111, 110, -1, 
              110, 20, 21, -1, 155, 65, 66, -1, 66, 156, 155, -1, 
              22, 112, 111, -1, 111, 21, 22, -1, 156, 66, 67, -1, 
              67, 157, 156, -1, 23, 113, 112, -1, 112, 22, 23, -1, 
              157, 67, 68, -1, 68, 158, 157, -1, 24, 114, 113, -1, 
              113, 23, 24, -1, 158, 68, 69, -1, 69, 159, 158, -1, 
              25, 115, 114, -1, 114, 24, 25, -1, 159, 69, 70, -1, 
              70, 160, 159, -1, 26, 116, 115, -1, 115, 25, 26, -1, 
              160, 70, 71, -1, 71, 161, 160, -1, 27, 117, 116, -1, 
              116, 26, 27, -1, 161, 71, 72, -1, 72, 162, 161, -1, 
              28, 118, 117, -1, 117, 27, 28, -1, 162, 72, 73, -1, 
              73, 163, 162, -1, 29, 119, 118, -1, 118, 28, 29, -1, 
              163, 73, 74, -1, 74, 164, 163, -1, 30, 120, 119, -1, 
              119, 29, 30, -1, 164, 74, 75, -1, 75, 165, 164, -1, 
              31, 121, 120, -1, 120, 30, 31, -1, 165, 75, 76, -1, 
              76, 166, 165, -1, 32, 122, 121, -1, 121, 31, 32, -1, 
              166, 76, 77, -1, 77, 167, 166, -1, 33, 123, 122, -1, 
              122, 32, 33, -1, 167, 77, 78, -1, 78, 168, 167, -1, 
              34, 124, 123, -1, 123, 33, 34, -1, 168, 78, 79, -1, 
              79, 169, 168, -1, 35, 125, 124, -1, 124, 34, 35, -1, 
              169, 79, 80, -1, 80, 170, 169, -1, 36, 126, 125, -1, 
              125, 35, 36, -1, 170, 80, 81, -1, 81, 171, 170, -1, 
              37, 127, 126, -1, 126, 36, 37, -1, 171, 81, 82, -1, 
              82, 172, 171, -1, 38, 128, 127, -1, 127, 37, 38, -1, 
              172, 82, 83, -1, 83, 173, 172, -1, 39, 129, 128, -1, 
              128, 38, 39, -1, 173, 83, 84, -1, 84, 174, 173, -1, 
              40, 130, 129, -1, 129, 39, 40, -1, 174, 84, 85, -1, 
              85, 175, 174, -1, 41, 131, 130, -1, 130, 40, 41, -1, 
              175, 85, 86, -1, 86, 176, 175, -1, 42, 132, 131, -1, 
              131, 41, 42, -1, 176, 86, 87, -1, 87, 177, 176, -1, 
              43, 133, 132, -1, 132, 42, 43, -1, 177, 87, 88, -1, 
              88, 178, 177, -1, 134, 44, 133, -1, 133, 43, 134, -1, 
              178, 88, 89, -1, 89, 179, 178, -1, 90, 0, 44, -1, 
              44, 134, 90, -1, 179, 89, 45, -1, 45, 135, 179, -1, 
              181, 180, 135, -1, 135, 136, 181, -1, 182, 181, 136, -1, 
              136, 137, 182, -1, 183, 182, 137, -1, 137, 138, 183, -1, 
              184, 183, 138, -1, 138, 139, 184, -1, 185, 184, 139, -1, 
              139, 140, 185, -1, 186, 185, 140, -1, 140, 141, 186, -1, 
              187, 186, 141, -1, 141, 142, 187, -1, 188, 187, 142, -1, 
              142, 143, 188, -1, 189, 188, 143, -1, 143, 144, 189, -1, 
              190, 189, 144, -1, 144, 145, 190, -1, 191, 190, 145, -1, 
              145, 146, 191, -1, 192, 191, 146, -1, 146, 147, 192, -1, 
              193, 192, 147, -1, 147, 148, 193, -1, 194, 193, 148, -1, 
              148, 149, 194, -1, 195, 194, 149, -1, 149, 150, 195, -1, 
              196, 195, 150, -1, 150, 151, 196, -1, 197, 196, 151, -1, 
              151, 152, 197, -1, 198, 197, 152, -1, 152, 153, 198, -1, 
              199, 198, 153, -1, 153, 154, 199, -1, 200, 199, 154, -1, 
              154, 155, 200, -1, 201, 200, 155, -1, 155, 156, 201, -1, 
              202, 201, 156, -1, 156, 157, 202, -1, 203, 202, 157, -1, 
              157, 158, 203, -1, 204, 203, 158, -1, 158, 159, 204, -1, 
              205, 204, 159, -1, 159, 160, 205, -1, 206, 205, 160, -1, 
              160, 161, 206, -1, 207, 206, 161, -1, 161, 162, 207, -1, 
              208, 207, 162, -1, 162, 163, 208, -1, 209, 208, 163, -1, 
              163, 164, 209, -1, 210, 209, 164, -1, 164, 165, 210, -1, 
              211, 210, 165, -1, 165, 166, 211, -1, 212, 211, 166, -1, 
              166, 167, 212, -1, 213, 212, 167, -1, 167, 168, 213, -1, 
              214, 213, 168, -1, 168, 169, 214, -1, 215, 214, 169, -1, 
              169, 170, 215, -1, 216, 215, 170, -1, 170, 171, 216, -1, 
              217, 216, 171, -1, 171, 172, 217, -1, 218, 217, 172, -1, 
              172, 173, 218, -1, 219, 218, 173, -1, 173, 174, 219, -1, 
              220, 219, 174, -1, 174, 175, 220, -1, 221, 220, 175, -1, 
              175, 176, 221, -1, 222, 221, 176, -1, 176, 177, 222, -1, 
              223, 222, 177, -1, 177, 178, 223, -1, 224, 223, 178, -1, 
              178, 179, 224, -1, 180, 224, 179, -1, 179, 135, 180, -1, 
              226, 225, 180, -1, 180, 181, 226, -1, 227, 226, 181, -1, 
              181, 182, 227, -1, 228, 227, 182, -1, 182, 183, 228, -1, 
              229, 228, 183, -1, 183, 184, 229, -1, 230, 229, 184, -1, 
              184, 185, 230, -1, 231, 230, 185, -1, 185, 186, 231, -1, 
              232, 231, 186, -1, 186, 187, 232, -1, 233, 232, 187, -1, 
              187, 188, 233, -1, 234, 233, 188, -1, 188, 189, 234, -1, 
              235, 234, 189, -1, 189, 190, 235, -1, 236, 235, 190, -1, 
              190, 191, 236, -1, 237, 236, 191, -1, 191, 192, 237, -1, 
              238, 237, 192, -1, 192, 193, 238, -1, 239, 238, 193, -1, 
              193, 194, 239, -1, 240, 239, 194, -1, 194, 195, 240, -1, 
              241, 240, 195, -1, 195, 196, 241, -1, 242, 241, 196, -1, 
              196, 197, 242, -1, 243, 242, 197, -1, 197, 198, 243, -1, 
              244, 243, 198, -1, 198, 199, 244, -1, 245, 244, 199, -1, 
              199, 200, 245, -1, 246, 245, 200, -1, 200, 201, 246, -1, 
              247, 246, 201, -1, 201, 202, 247, -1, 248, 247, 202, -1, 
              202, 203, 248, -1, 249, 248, 203, -1, 203, 204, 249, -1, 
              250, 249, 204, -1, 204, 205, 250, -1, 251, 250, 205, -1, 
              205, 206, 251, -1, 252, 251, 206, -1, 206, 207, 252, -1, 
              253, 252, 207, -1, 207, 208, 253, -1, 254, 253, 208, -1, 
              208, 209, 254, -1, 255, 254, 209, -1, 209, 210, 255, -1, 
              256, 255, 210, -1, 210, 211, 256, -1, 257, 256, 211, -1, 
              211, 212, 257, -1, 258, 257, 212, -1, 212, 213, 258, -1, 
              259, 258, 213, -1, 213, 214, 259, -1, 260, 259, 214, -1, 
              214, 215, 260, -1, 261, 260, 215, -1, 215, 216, 261, -1, 
              262, 261, 216, -1, 216, 217, 262, -1, 263, 262, 217, -1, 
              217, 218, 263, -1, 264, 263, 218, -1, 218, 219, 264, -1, 
              265, 264, 219, -1, 219, 220, 265, -1, 266, 265, 220, -1, 
              220, 221, 266, -1, 267, 266, 221, -1, 221, 222, 267, -1, 
              268, 267, 222, -1, 222, 223, 268, -1, 269, 268, 223, -1, 
              223, 224, 269, -1, 225, 269, 224, -1, 224, 180, 225, -1, 
              233, 234, 235, -1, 235, 236, 237, -1, 233, 235, 237, -1, 
              237, 238, 239, -1, 239, 240, 241, -1, 241, 242, 243, -1, 
              239, 241, 243, -1, 243, 244, 245, -1, 245, 246, 247, -1, 
              243, 245, 247, -1, 239, 243, 247, -1, 247, 248, 249, -1, 
              249, 250, 251, -1, 247, 249, 251, -1, 251, 252, 253, -1, 
              247, 251, 253, -1, 239, 247, 253, -1, 253, 254, 255, -1, 
              255, 256, 257, -1, 253, 255, 257, -1, 257, 258, 259, -1, 
              259, 260, 261, -1, 257, 259, 261, -1, 253, 257, 261, -1, 
              253, 261, 262, -1, 253, 262, 263, -1, 239, 253, 263, -1, 
              266, 267, 268, -1, 265, 266, 268, -1, 264, 265, 268, -1, 
              263, 264, 268, -1, 268, 269, 225, -1, 268, 225, 226, -1, 
              268, 226, 227, -1, 268, 227, 228, -1, 263, 268, 228, -1, 
              239, 263, 228, -1, 237, 239, 228, -1, 237, 228, 229, -1, 
              237, 229, 230, -1, 233, 237, 230, -1, 233, 230, 231, -1, 
              232, 233, 231, -1]
            }
        }
      ]
    },
    DEF obj_03-2659 Transform {
      translation 0 30.54 -0.3937
      children [
        Shape {
          appearance Appearance {
            material Material {
              diffuseColor 0.588 0.588 0.588
              ambientIntensity 1.0
              specularColor 0 0 0
              shininess 0.145
              transparency 0
            }
          }
          geometry DEF obj_03-2659-FACES IndexedFaceSet {
            ccw TRUE
            solid FALSE
            coord DEF obj_03-2659-COORD Coordinate { point [
              -11.81 0.2756 8.012, 11.81 0.2362 7.972, -11.85 0.2756 -8.051, 
              11.81 0.2362 -8.051, -11.81 0.8268 8.012, 11.85 0.8268 7.972, 
              -11.85 0.8268 -8.051, 11.81 0.8268 -8.091, -11.85 0.2756 7.972, 
              -11.81 0.2362 7.972, 11.85 0.2756 7.972, 11.81 0.2756 8.012, 
              -11.81 0.2756 -8.091, -11.81 0.2362 -8.051, 11.81 0.2756 -8.091, 
              11.85 0.2756 -8.051, -11.81 0.8661 7.972, -11.85 0.8268 7.972, 
              11.81 0.8661 7.972, 11.81 0.8268 8.012, -11.81 0.8661 -8.051, 
              -11.81 0.8268 -8.091, 11.81 0.8661 -8.051, 11.85 0.8268 -8.051, 
              -11.81 -14.49 8.051, 11.81 -14.53 8.012, -11.85 -14.49 -7.776, 
              11.81 -14.53 -7.776, -11.81 -14.17 8.051, 11.85 -14.17 8.012, 
              -11.85 -14.17 -7.776, 11.81 -14.17 -7.815, -11.85 -14.49 8.012, 
              -11.81 -14.53 8.012, 11.85 -14.49 8.012, 11.81 -14.49 8.051, 
              -11.81 -14.49 -7.815, -11.81 -14.53 -7.776, 11.81 -14.49 -7.815, 
              11.85 -14.49 -7.776, -11.81 -14.13 8.012, -11.85 -14.17 8.012, 
              11.81 -14.13 8.012, 11.81 -14.17 8.051, -11.81 -14.13 -7.776, 
              -11.81 -14.17 -7.815, 11.81 -14.13 -7.776, 11.85 -14.17 -7.776, 
              -11.81 -29.25 8.051, 11.81 -29.29 8.012, -11.85 -29.25 -7.776, 
              11.81 -29.29 -7.776, -11.81 -28.94 8.051, 11.85 -28.94 8.012, 
              -11.85 -28.94 -7.776, 11.81 -28.94 -7.815, -11.85 -29.25 8.012, 
              -11.81 -29.29 8.012, 11.85 -29.25 8.012, 11.81 -29.25 8.051, 
              -11.81 -29.25 -7.815, -11.81 -29.29 -7.776, 11.81 -29.25 -7.815, 
              11.85 -29.25 -7.776, -11.81 -28.9 8.012, -11.85 -28.94 8.012, 
              11.81 -28.9 8.012, 11.81 -28.94 8.051, -11.81 -28.9 -7.776, 
              -11.81 -28.94 -7.815, 11.81 -28.9 -7.776, 11.85 -28.94 -7.776, 
              -11.81 -44.02 8.051, 11.81 -44.06 8.012, -11.85 -44.02 -7.776, 
              11.81 -44.06 -7.776, -11.81 -43.7 8.051, 11.85 -43.7 8.012, 
              -11.85 -43.7 -7.776, 11.81 -43.7 -7.815, -11.85 -44.02 8.012, 
              -11.81 -44.06 8.012, 11.85 -44.02 8.012, 11.81 -44.02 8.051, 
              -11.81 -44.02 -7.815, -11.81 -44.06 -7.776, 11.81 -44.02 -7.815, 
              11.85 -44.02 -7.776, -11.81 -43.66 8.012, -11.85 -43.7 8.012, 
              11.81 -43.66 8.012, 11.81 -43.7 8.051, -11.81 -43.66 -7.776, 
              -11.81 -43.7 -7.815, 11.81 -43.66 -7.776, 11.85 -43.7 -7.776, 
              -11.81 -59.52 8.012, 11.81 -59.55 7.972, -11.85 -59.52 -8.051, 
              11.81 -59.55 -8.051, -11.81 -59.2 8.012, 11.85 -59.2 7.972, 
              -11.85 -59.2 -8.051, 11.81 -59.2 -8.091, -11.85 -59.52 7.972, 
              -11.81 -59.55 7.972, 11.85 -59.52 7.972, 11.81 -59.52 8.012, 
              -11.81 -59.52 -8.091, -11.81 -59.55 -8.051, 11.81 -59.52 -8.091, 
              11.85 -59.52 -8.051, -11.81 -59.16 7.972, -11.85 -59.2 7.972, 
              11.81 -59.16 7.972, 11.81 -59.2 8.012, -11.81 -59.16 -8.051, 
              -11.81 -59.2 -8.091, 11.81 -59.16 -8.051, 11.85 -59.2 -8.051, 
              -10.28 -59.55 7.972, -10.24 -59.16 7.972, -10.24 -59.52 8.012, 
              -10.24 -59.2 8.012, 10.28 -59.55 7.972, 10.24 -59.52 8.012, 
              10.24 -59.16 7.972, 10.24 -59.2 8.012, 10.24 -59.16 8.799, 
              -10.24 -59.16 8.799, -10.24 -59.2 8.839, -10.24 -59.52 8.839, 
              -10.24 -59.55 8.76, 10.24 -59.55 8.76, 10.24 -59.52 8.839, 
              10.24 -59.2 8.839, -10.2 -61.48 7.972, 10.24 -61.48 8.012, 
              10.2 -61.48 8.799, -10.24 -61.48 8.76, -10.2 -59.55 7.972, 
              -10.24 -59.55 8.012, -10.24 -59.53 8, 10.24 -59.53 8, 
              10.24 -59.55 8.012, 10.2 -59.55 7.972, -10.2 -59.55 8.799, 
              -10.24 -59.53 8.827, 10.24 -59.53 8.827, 10.2 -59.55 8.799, 
              -10.2 -61.52 8.012, -10.24 -61.48 8.012, 10.2 -61.52 8.012, 
              10.2 -61.48 7.972, 10.2 -61.52 8.76, 10.24 -61.48 8.76, 
              -10.2 -61.52 8.76, -10.2 -61.48 8.799]
            }
            coordIndex [
              3, 1, 9, -1, 9, 13, 3, -1, 22, 20, 16, -1, 16, 18, 22, -1, 
              19, 4, 0, -1, 0, 11, 19, -1, 23, 5, 10, -1, 10, 15, 23, -1, 
              21, 7, 14, -1, 14, 12, 21, -1, 17, 6, 2, -1, 2, 8, 17, -1, 
              0, 8, 9, -1, 1, 10, 11, -1, 2, 12, 13, -1, 3, 14, 15, -1, 
              4, 16, 17, -1, 5, 18, 19, -1, 6, 20, 21, -1, 7, 22, 23, -1, 
              2, 13, 9, -1, 9, 8, 2, -1, 14, 3, 13, -1, 13, 12, 14, -1, 
              10, 1, 3, -1, 3, 15, 10, -1, 0, 9, 1, -1, 1, 11, 0, -1, 
              19, 18, 16, -1, 16, 4, 19, -1, 23, 22, 18, -1, 
              18, 5, 23, -1, 21, 20, 22, -1, 22, 7, 21, -1, 17, 16, 20, -1, 
              20, 6, 17, -1, 5, 19, 11, -1, 11, 10, 5, -1, 8, 0, 4, -1, 
              4, 17, 8, -1, 7, 23, 15, -1, 15, 14, 7, -1, 6, 21, 12, -1, 
              12, 2, 6, -1, 27, 25, 33, -1, 33, 37, 27, -1, 46, 44, 40, -1, 
              40, 42, 46, -1, 43, 28, 24, -1, 24, 35, 43, -1, 
              47, 29, 34, -1, 34, 39, 47, -1, 45, 31, 38, -1, 
              38, 36, 45, -1, 41, 30, 26, -1, 26, 32, 41, -1, 
              24, 32, 33, -1, 25, 34, 35, -1, 26, 36, 37, -1, 
              27, 38, 39, -1, 28, 40, 41, -1, 29, 42, 43, -1, 
              30, 44, 45, -1, 31, 46, 47, -1, 26, 37, 33, -1, 
              33, 32, 26, -1, 38, 27, 37, -1, 37, 36, 38, -1, 
              34, 25, 27, -1, 27, 39, 34, -1, 24, 33, 25, -1, 
              25, 35, 24, -1, 43, 42, 40, -1, 40, 28, 43, -1, 
              47, 46, 42, -1, 42, 29, 47, -1, 45, 44, 46, -1, 
              46, 31, 45, -1, 41, 40, 44, -1, 44, 30, 41, -1, 
              29, 43, 35, -1, 35, 34, 29, -1, 32, 24, 28, -1, 
              28, 41, 32, -1, 31, 47, 39, -1, 39, 38, 31, -1, 
              30, 45, 36, -1, 36, 26, 30, -1, 51, 49, 57, -1, 
              57, 61, 51, -1, 70, 68, 64, -1, 64, 66, 70, -1, 
              67, 52, 48, -1, 48, 59, 67, -1, 71, 53, 58, -1, 
              58, 63, 71, -1, 69, 55, 62, -1, 62, 60, 69, -1, 
              65, 54, 50, -1, 50, 56, 65, -1, 48, 56, 57, -1, 
              49, 58, 59, -1, 50, 60, 61, -1, 51, 62, 63, -1, 
              52, 64, 65, -1, 53, 66, 67, -1, 54, 68, 69, -1, 
              55, 70, 71, -1, 50, 61, 57, -1, 57, 56, 50, -1, 
              62, 51, 61, -1, 61, 60, 62, -1, 58, 49, 51, -1, 
              51, 63, 58, -1, 48, 57, 49, -1, 49, 59, 48, -1, 
              67, 66, 64, -1, 64, 52, 67, -1, 71, 70, 66, -1, 
              66, 53, 71, -1, 69, 68, 70, -1, 70, 55, 69, -1, 
              65, 64, 68, -1, 68, 54, 65, -1, 53, 67, 59, -1, 
              59, 58, 53, -1, 56, 48, 52, -1, 52, 65, 56, -1, 
              55, 71, 63, -1, 63, 62, 55, -1, 54, 69, 60, -1, 
              60, 50, 54, -1, 75, 73, 81, -1, 81, 85, 75, -1, 
              94, 92, 88, -1, 88, 90, 94, -1, 91, 76, 72, -1, 
              72, 83, 91, -1, 95, 77, 82, -1, 82, 87, 95, -1, 
              93, 79, 86, -1, 86, 84, 93, -1, 89, 78, 74, -1, 
              74, 80, 89, -1, 72, 80, 81, -1, 73, 82, 83, -1, 
              74, 84, 85, -1, 75, 86, 87, -1, 76, 88, 89, -1, 
              77, 90, 91, -1, 78, 92, 93, -1, 79, 94, 95, -1, 
              74, 85, 81, -1, 81, 80, 74, -1, 86, 75, 85, -1, 
              85, 84, 86, -1, 82, 73, 75, -1, 75, 87, 82, -1, 
              72, 81, 73, -1, 73, 83, 72, -1, 91, 90, 88, -1, 
              88, 76, 91, -1, 95, 94, 90, -1, 90, 77, 95, -1, 
              93, 92, 94, -1, 94, 79, 93, -1, 89, 88, 92, -1, 
              92, 78, 89, -1, 77, 91, 83, -1, 83, 82, 77, -1, 
              80, 72, 76, -1, 76, 89, 80, -1, 79, 95, 87, -1, 
              87, 86, 79, -1, 78, 93, 84, -1, 84, 74, 78, -1, 
              145, 140, 120, -1, 105, 109, 99, -1, 120, 105, 99, -1, 
              145, 120, 99, -1, 145, 99, 97, -1, 145, 97, 124, -1, 
              126, 114, 118, -1, 118, 116, 112, -1, 118, 112, 121, -1, 
              126, 118, 121, -1, 100, 96, 122, -1, 122, 123, 100, -1, 
              119, 101, 106, -1, 106, 111, 119, -1, 117, 103, 110, -1, 
              110, 108, 117, -1, 113, 102, 98, -1, 98, 104, 113, -1, 
              96, 104, 105, -1, 97, 106, 107, -1, 98, 108, 109, -1, 
              99, 110, 111, -1, 100, 112, 113, -1, 101, 114, 115, -1, 
              102, 116, 117, -1, 103, 118, 119, -1, 98, 109, 105, -1, 
              105, 104, 98, -1, 110, 99, 109, -1, 109, 108, 110, -1, 
              106, 97, 99, -1, 99, 111, 106, -1, 125, 143, 124, -1, 
              124, 97, 107, -1, 125, 124, 107, -1, 121, 112, 100, -1, 
              100, 123, 121, -1, 119, 118, 114, -1, 114, 101, 119, -1, 
              117, 116, 118, -1, 118, 103, 117, -1, 113, 112, 116, -1, 
              116, 102, 113, -1, 101, 115, 107, -1, 107, 106, 101, -1, 
              104, 96, 100, -1, 100, 113, 104, -1, 103, 119, 111, -1, 
              111, 110, 103, -1, 102, 117, 108, -1, 108, 98, 102, -1, 
              130, 131, 134, -1, 134, 135, 130, -1, 105, 120, 142, -1, 
              142, 122, 96, -1, 105, 142, 96, -1, 129, 130, 135, -1, 
              135, 128, 129, -1, 146, 149, 148, -1, 148, 134, 131, -1, 
              146, 148, 131, -1, 146, 131, 147, -1, 127, 125, 107, -1, 
              107, 115, 127, -1, 126, 127, 115, -1, 115, 114, 126, -1, 
              129, 128, 126, -1, 126, 121, 129, -1, 130, 129, 121, -1, 
              121, 123, 130, -1, 131, 130, 123, -1, 123, 122, 131, -1, 
              141, 132, 147, -1, 147, 131, 122, -1, 141, 147, 122, -1, 
              141, 122, 142, -1, 154, 156, 150, -1, 150, 152, 154, -1, 
              134, 148, 133, -1, 133, 144, 143, -1, 134, 133, 143, -1, 
              134, 143, 125, -1, 135, 134, 125, -1, 125, 127, 135, -1, 
              128, 135, 127, -1, 127, 126, 128, -1, 153, 136, 140, -1, 
              140, 145, 153, -1, 155, 137, 144, -1, 144, 133, 155, -1, 
              157, 138, 149, -1, 149, 146, 157, -1, 151, 139, 132, -1, 
              132, 141, 151, -1, 141, 142, 120, -1, 120, 140, 141, -1, 
              144, 145, 124, -1, 124, 143, 144, -1, 132, 146, 147, -1, 
              133, 148, 149, -1, 136, 150, 151, -1, 137, 152, 153, -1, 
              138, 154, 155, -1, 139, 156, 157, -1, 153, 152, 150, -1, 
              150, 136, 153, -1, 155, 154, 152, -1, 152, 137, 155, -1, 
              157, 156, 154, -1, 154, 138, 157, -1, 151, 150, 156, -1, 
              156, 139, 151, -1, 136, 151, 141, -1, 141, 140, 136, -1, 
              137, 153, 145, -1, 145, 144, 137, -1, 138, 155, 133, -1, 
              133, 149, 138, -1, 139, 157, 146, -1, 146, 132, 139, -1]
            }
        }
      ]
    },
    DEF obj_04-2662 Transform {
      translation 0 1.094 -8.484
      rotation -1 0 0 -1.571
      children [
        Shape {
          appearance Appearance {
            material Material {
              diffuseColor 0.588 0.588 0.588
              ambientIntensity 1.0
              specularColor 0 0 0
              shininess 0.145
              transparency 0
            }
          }
          geometry DEF obj_04-2662-FACES IndexedFaceSet {
            ccw TRUE
            solid FALSE
            coord DEF obj_04-2662-COORD Coordinate { point [
              -11.81 0 29.72, 11.81 0 29.72, -11.81 0 -29.68, 11.81 0 -29.68, 
              -11.81 0.2756 29.72, 11.81 0.2756 29.72, -11.81 0.2756 -29.68, 
              11.81 0.2756 -29.68]
            }
            coordIndex [
              0, 2, 3, -1, 3, 1, 0, -1, 4, 5, 7, -1, 7, 6, 4, -1, 
              0, 1, 5, -1, 5, 4, 0, -1, 1, 3, 7, -1, 7, 5, 1, -1, 
              3, 2, 6, -1, 6, 7, 3, -1, 2, 0, 4, -1, 4, 6, 2, -1]
            }
        }
      ]
    }
  ]
}
