#VRML V2.0 utf8

Transform {
	children [
		Transform {translation  0 -0.25 0 children [ Inline { url "cotHien2.wrl"}]}
		Transform {translation 0.5 0 0 children [ Inline { url "cothien.wrl"}]}
		Transform {translation -0.5 0 0 children [ Inline { url "cothien.wrl"}]}
		Transform {translation 1. 0 0 children [ Inline { url "cothien.wrl"}]}
		Transform {translation -1 0 0 children [ Inline { url "cothien.wrl"}]}
		Transform {translation 1.5 0 0 children [ Inline { url "cothien.wrl"}]}
		Transform {translation -1.5 0 0 children [ Inline { url "cothien.wrl"}]}
		Transform {translation 2 -0.25 0 children [ Inline { url "cotHien2.wrl"}]}
		Transform {translation -2 -0.25 0 children [ Inline { url "cotHien2.wrl"}]}
		Transform {translation 2.5 0 0 children [ Inline { url "cothien.wrl"}]}
		Transform {translation -2.5 0 0 children [ Inline { url "cothien.wrl"}]}
		Transform {translation 3 0 0 children [ Inline { url "cothien.wrl"}]}
		Transform {translation -3 0 0 children [ Inline { url "cothien.wrl"}]}
		Transform {translation 3.5 0 0 children [ Inline { url "cothien.wrl"}]}
		Transform {translation -3.5 0 0 children [ Inline { url "cothien.wrl"}]}
		Transform {translation 4 -0.25 0 children [ Inline { url "cotHien2.wrl"}]}
		Transform {translation -4 -0.25 0 children [ Inline { url "cotHien2.wrl"}]}
		Transform {translation -4 0 0.3 children [ Inline { url "cothien.wrl"}]}
		Transform {translation 4 0 0.3 children [ Inline { url "cothien.wrl"}]}
		Transform {translation 4 0 0.6 children [ Inline { url "cothien.wrl"}]}
		Transform {translation -4 0 0.6 children [ Inline { url "cothien.wrl"}]}
		Transform {translation 4 -0.25 1 children [ Inline { url "cotHien2.wrl"}]}
		Transform {translation -4 -0.25 1 children [ Inline { url "cotHien2.wrl"}]}
		# thanh ngang ngang

		Transform {
			translation	-2 0.23 0
			children [
				Shape {
					geometry Box {
					size 4 0.05 0.1 
				}
				appearance Appearance
				{
					material Material {
					diffuseColor  0.7 0.7 0.5
					}
				}
				}
			]
		}
		Transform {
			translation	2 0.23 0
			children [
				Shape {
					geometry Box {
					size 4 0.05 0.1 
				}
				appearance Appearance
				{
					material Material {
					diffuseColor  0.7 0.7 0.5
					}
				}
				}
			]
		}
		Transform {
			translation	-2 -0.24 0
			children [
				Shape {
					geometry Box {
					size 4 0.05 0.1 
				}
				appearance Appearance
				{
					material Material {
					diffuseColor  0.7 0.7 0.5
					}
				}
				}
			]
		}
		Transform {
			translation	2 -0.24 0
			children [
				Shape {
					geometry Box {
					size 4 0.05 0.1 
				}
				appearance Appearance
				{
					material Material {
					diffuseColor  0.7 0.7 0.5
					}
				}
				}
			]
		}

		# thanh ngang doc
		Transform {
			translation	4 -0.24 0.45
			children [
				Shape {
					geometry Box {
					size 0.1 0.05 1 
				}
				appearance Appearance
				{
					material Material {
					diffuseColor  0.7 0.7 0.5
					}
				}
				}
			]
		}
		Transform {
			translation	4 0.24 0.45
			children [
				Shape {
					geometry Box {
					size 0.1 0.05 1 
				}
				appearance Appearance
				{
					material Material {
					diffuseColor  0.7 0.7 0.5
					}
				}
				}
			]
		}
		Transform {
			translation	-4 -0.24 0.45
			children [
				Shape {
					geometry Box {
					size 0.1 0.05 1 
				}
				appearance Appearance
				{
					material Material {
					diffuseColor  0.7 0.7 0.5
					}
				}
				}
			]
		}
		Transform {
			translation	-4 0.24 0.45
			children [
				Shape {
					geometry Box {
					size 0.1 0.05 1 
				}
				appearance Appearance
				{
					material Material {
					diffuseColor  0.7 0.7 0.5
					}
				}
				}
			]
		}
	]
}