#VRML V2.0 utf8

#VRML V2.0 utf8
Transform  {
	children [
		Transform {
			children [
				Shape {
					geometry Box { size 3 0.8 0.03}

					appearance Appearance {
						texture ImageTexture {
						url	"logobien1.jpg"
					
						}
					}
				}
			]
		}
		Transform {
			translation	0 0.7 0
			children [
				Shape {
					geometry Box { size 0.5 0.5 0.03}

					appearance Appearance {
						texture ImageTexture {
						url	"logobien2.jpg"
					
						}
					}
				}
			]
		}
	]
}