#VRML V2.0 utf8

# mai nha

Transform {
	children   [
		Transform	{
			rotation -1 0 0 0.786
			children [
				Shape {
				appearance Appearance{
					texture ImageTexture {
					url	"maiton.jpg"
		
					}
					}
				geometry IndexedFaceSet {
					coord Coordinate {
                    			point [
							# bottom 
							0 0 0,	#vertex 0
							7 0 0,	#vertex 1
							1 .5 1.5,	#vertex 2
							6 .5 1.5,	#vertex 3
							7. 1.2 0.2,		#vertex 4
							0 1.2 0.2		#vertex 5
							#0.0 1.0 0.0		
                    			]
                			}
					coordIndex [
		
						 0,1, 3, 2, -1,
						 5,0,2	,-1,
						 4,3,1,-1
						]
			
				}
			}
			]
		}
	  
	]
}